<?xml version="1.0" encoding="UTF-8" standalone="no"?>
<graphml xmlns="http://graphml.graphdrawing.org/xmlns" xmlns:java="http://www.yworks.com/xml/yfiles-common/1.0/java" xmlns:sys="http://www.yworks.com/xml/yfiles-common/markup/primitives/2.0" xmlns:x="http://www.yworks.com/xml/yfiles-common/markup/2.0" xmlns:xsi="http://www.w3.org/2001/XMLSchema-instance" xmlns:y="http://www.yworks.com/xml/graphml" xmlns:yed="http://www.yworks.com/xml/yed/3" xsi:schemaLocation="http://graphml.graphdrawing.org/xmlns http://www.yworks.com/xml/schema/graphml/1.1/ygraphml.xsd">
  <!--Created by yEd 3.19.1-->
  <key attr.name="Description" attr.type="string" for="graph" id="d0"/>
  <key for="port" id="d1" yfiles.type="portgraphics"/>
  <key for="port" id="d2" yfiles.type="portgeometry"/>
  <key for="port" id="d3" yfiles.type="portuserdata"/>
  <key attr.name="url" attr.type="string" for="node" id="d4"/>
  <key attr.name="description" attr.type="string" for="node" id="d5"/>
  <key for="node" id="d6" yfiles.type="nodegraphics"/>
  <key for="graphml" id="d7" yfiles.type="resources"/>
  <key attr.name="url" attr.type="string" for="edge" id="d8"/>
  <key attr.name="description" attr.type="string" for="edge" id="d9"/>
  <key for="edge" id="d10" yfiles.type="edgegraphics"/>
  <graph edgedefault="directed" id="G">
    <data key="d0" xml:space="preserve"/>
    <node id="n0" yfiles.foldertype="group">
      <data key="d4" xml:space="preserve"/>
      <data key="d6">
        <y:ProxyAutoBoundsNode>
          <y:Realizers active="0">
            <y:GroupNode>
              <y:Geometry height="450.3309535000002" width="805.305579834921" x="-1630.8925690095139" y="67.65391379403296"/>
              <y:Fill color="#F5F5F5" transparent="false"/>
              <y:BorderStyle color="#000000" type="dashed" width="1.0"/>
              <y:NodeLabel alignment="right" autoSizePolicy="node_width" backgroundColor="#EBEBEB" borderDistance="0.0" fontFamily="Dialog" fontSize="15" fontStyle="plain" hasLineColor="false" height="21.4609375" horizontalTextPosition="center" iconTextGap="4" modelName="internal" modelPosition="t" textColor="#000000" verticalTextPosition="bottom" visible="true" width="805.305579834921" x="0.0" xml:space="preserve" y="0.0">DataForgame</y:NodeLabel>
              <y:Shape type="roundrectangle"/>
              <y:State closed="false" closedHeight="50.0" closedWidth="50.0" innerGraphDisplayEnabled="false"/>
              <y:Insets bottom="15" bottomF="15.0" left="15" leftF="15.0" right="15" rightF="15.0" top="15" topF="15.0"/>
              <y:BorderInsets bottom="9" bottomF="8.9477896848623" left="0" leftF="0.0" right="0" rightF="0.0" top="0" topF="0.0"/>
            </y:GroupNode>
            <y:GroupNode>
              <y:Geometry height="50.0" width="50.0" x="-25.0" y="-25.0"/>
              <y:Fill color="#F2F0D8" transparent="false"/>
              <y:BorderStyle color="#000000" type="line" width="1.0"/>
              <y:NodeLabel alignment="right" autoSizePolicy="node_width" backgroundColor="#B7B69E" borderDistance="0.0" fontFamily="Dialog" fontSize="15" fontStyle="plain" hasLineColor="false" height="21.4609375" horizontalTextPosition="center" iconTextGap="4" modelName="internal" modelPosition="t" textColor="#000000" verticalTextPosition="bottom" visible="true" width="65.201171875" x="-7.6005859375" xml:space="preserve" y="0.0">Folder 4</y:NodeLabel>
              <y:Shape type="rectangle"/>
              <y:DropShadow color="#D2D2D2" offsetX="4" offsetY="4"/>
              <y:State closed="true" closedHeight="50.0" closedWidth="50.0" innerGraphDisplayEnabled="false"/>
              <y:Insets bottom="5" bottomF="5.0" left="5" leftF="5.0" right="5" rightF="5.0" top="5" topF="5.0"/>
              <y:BorderInsets bottom="0" bottomF="0.0" left="0" leftF="0.0" right="0" rightF="0.0" top="0" topF="0.0"/>
            </y:GroupNode>
          </y:Realizers>
        </y:ProxyAutoBoundsNode>
      </data>
      <graph edgedefault="directed" id="n0:">
        <node id="n0::n0">
          <data key="d4" xml:space="preserve"/>
          <data key="d6">
            <y:UMLClassNode>
              <y:Geometry height="197.22070757108975" width="378.7018236444446" x="-1615.8925690095139" y="296.8163700380811"/>
              <y:Fill color="#FFCC00" transparent="false"/>
              <y:BorderStyle color="#000000" type="line" width="1.0"/>
              <y:NodeLabel alignment="center" autoSizePolicy="content" fontFamily="Dialog" fontSize="13" fontStyle="bold" hasBackgroundColor="false" hasLineColor="false" height="19.1328125" horizontalTextPosition="center" iconTextGap="4" modelName="custom" textColor="#000000" verticalTextPosition="bottom" visible="true" width="83.28857421875" x="147.7066247128473" xml:space="preserve" y="3.0">Repository<y:LabelModel><y:SmartNodeLabelModel distance="4.0"/></y:LabelModel><y:ModelParameter><y:SmartNodeLabelModelParameter labelRatioX="0.0" labelRatioY="0.0" nodeRatioX="0.0" nodeRatioY="0.0" offsetX="0.0" offsetY="0.0" upX="0.0" upY="-1.0"/></y:ModelParameter></y:NodeLabel>
              <y:UML clipContent="true" constraint="" hasDetailsColor="false" omitDetails="false" stereotype="" use3DEffect="true">
                <y:AttributeLabel xml:space="preserve">- UsingTypes: enum
- currentMap : Map
- mainCharachterId : int
- PlayerMap: map&lt;int, Player&gt;
- BulletMap: map&lt;int, Bullet&gt;
- WeaponMap: map&lt;int, Weapon&gt;</y:AttributeLabel>
                <y:MethodLabel xml:space="preserve">+ update(idUpdate : int, updatedObject : *DefaultObject) : void 
+ deleteData(idDelete : int, objectType: *DefaultObject) : void 
+ add(idAdd : int, addObject : *DefaultObject) : void 
+ get(idGet : int,objectType: *DefaultObject) : GameObject
+ getMainUser() Player;</y:MethodLabel>
              </y:UML>
            </y:UMLClassNode>
          </data>
        </node>
        <node id="n0::n1">
          <data key="d4" xml:space="preserve"/>
          <data key="d6">
            <y:UMLClassNode>
              <y:Geometry height="139.19999999999993" width="402.44555093333327" x="-1477.8603849668175" y="104.11485129403296"/>
              <y:Fill color="#339966" transparent="false"/>
              <y:BorderStyle color="#000000" type="line" width="1.0"/>
              <y:NodeLabel alignment="center" autoSizePolicy="content" fontFamily="Dialog" fontSize="13" fontStyle="bold" hasBackgroundColor="false" hasLineColor="false" height="19.1328125" horizontalTextPosition="center" iconTextGap="4" modelName="custom" textColor="#000000" verticalTextPosition="bottom" visible="true" width="105.03564453125" x="148.70495320104163" xml:space="preserve" y="25.96875">DataInterface<y:LabelModel><y:SmartNodeLabelModel distance="4.0"/></y:LabelModel><y:ModelParameter><y:SmartNodeLabelModelParameter labelRatioX="0.0" labelRatioY="0.0" nodeRatioX="0.0" nodeRatioY="0.0" offsetX="0.0" offsetY="0.0" upX="0.0" upY="-1.0"/></y:ModelParameter></y:NodeLabel>
              <y:UML clipContent="true" constraint="" hasDetailsColor="false" omitDetails="false" stereotype="&lt;&lt; interface &gt;&gt;" use3DEffect="true">
                <y:AttributeLabel xml:space="preserve"/>
                <y:MethodLabel xml:space="preserve">+ update(idUpdate : int, updatedObject : *DefaultObject) : void 
+ deleteData(idDelete : int, objectType: *DefaultObject) : void 
+ add(idAdd : int, addObject : *DefaultObject) : void 
+ get(idGet : int,objectType: *DefaultObject) : GameObject</y:MethodLabel>
              </y:UML>
            </y:UMLClassNode>
          </data>
        </node>
        <node id="n0::n2">
          <data key="d4" xml:space="preserve"/>
          <data key="d6">
            <y:UMLClassNode>
              <y:Geometry height="145.67409494886755" width="378.7018236444446" x="-1219.2888128190375" y="338.1297963237953"/>
              <y:Fill color="#FFCC00" transparent="false"/>
              <y:BorderStyle color="#000000" type="line" width="1.0"/>
              <y:NodeLabel alignment="center" autoSizePolicy="content" fontFamily="Dialog" fontSize="13" fontStyle="bold" hasBackgroundColor="false" hasLineColor="false" height="19.1328125" horizontalTextPosition="center" iconTextGap="4" modelName="custom" textColor="#000000" verticalTextPosition="bottom" visible="true" width="147.55859375" x="115.57161494722229" xml:space="preserve" y="3.0">RepositoryManager<y:LabelModel><y:SmartNodeLabelModel distance="4.0"/></y:LabelModel><y:ModelParameter><y:SmartNodeLabelModelParameter labelRatioX="0.0" labelRatioY="0.0" nodeRatioX="0.0" nodeRatioY="0.0" offsetX="0.0" offsetY="0.0" upX="0.0" upY="-1.0"/></y:ModelParameter></y:NodeLabel>
              <y:UML clipContent="true" constraint="" hasDetailsColor="false" omitDetails="false" stereotype="" use3DEffect="true">
                <y:AttributeLabel xml:space="preserve">- repositoryPointer : *Repository</y:AttributeLabel>
                <y:MethodLabel xml:space="preserve">+ RepositoryManager(rep : *DataInterface)
+ update(idUpdate : int, updatedObject : *DefaultObject) : void 
+ deleteData(idDelete : int, objectType: *DefaultObject) : void 
+ add(idAdd : int, addObject : *DefaultObject) : void 
+ get(idGet : int,objectType: *DefaultObject) : GameObject
+ getMainUser() Player;</y:MethodLabel>
              </y:UML>
            </y:UMLClassNode>
          </data>
        </node>
        <node id="n0::n3">
          <data key="d4" xml:space="preserve"/>
          <data key="d6">
            <y:UMLNoteNode>
              <y:Geometry height="28.0" width="100.0" x="-1615.8925690095139" y="268.8163700380811"/>
              <y:Fill color="#FFCC00" transparent="false"/>
              <y:BorderStyle color="#000000" type="line" width="1.0"/>
              <y:NodeLabel alignment="center" autoSizePolicy="content" fontFamily="Dialog" fontSize="12" fontStyle="plain" hasBackgroundColor="false" hasLineColor="false" height="17.96875" horizontalTextPosition="center" iconTextGap="4" modelName="custom" textColor="#000000" verticalTextPosition="bottom" visible="true" width="68.34765625" x="15.826171875" xml:space="preserve" y="5.015625">Repository<y:LabelModel><y:SmartNodeLabelModel distance="4.0"/></y:LabelModel><y:ModelParameter><y:SmartNodeLabelModelParameter labelRatioX="0.0" labelRatioY="0.0" nodeRatioX="0.0" nodeRatioY="0.0" offsetX="0.0" offsetY="0.0" upX="0.0" upY="-1.0"/></y:ModelParameter></y:NodeLabel>
            </y:UMLNoteNode>
          </data>
        </node>
      </graph>
    </node>
    <node id="n1">
      <data key="d4" xml:space="preserve"/>
      <data key="d6">
        <y:UMLClassNode>
          <y:Geometry height="311.70466526668423" width="393.3983200789652" x="-712.9796212119766" y="-381.510521601595"/>
          <y:Fill color="#CC99FF" transparent="false"/>
          <y:BorderStyle color="#000000" type="line" width="1.0"/>
          <y:NodeLabel alignment="center" autoSizePolicy="content" fontFamily="Dialog" fontSize="13" fontStyle="bold" hasBackgroundColor="false" hasLineColor="false" height="19.1328125" horizontalTextPosition="center" iconTextGap="4" modelName="custom" textColor="#000000" verticalTextPosition="bottom" visible="true" width="45.8056640625" x="173.7963280082326" xml:space="preserve" y="3.0">Game<y:LabelModel><y:SmartNodeLabelModel distance="4.0"/></y:LabelModel><y:ModelParameter><y:SmartNodeLabelModelParameter labelRatioX="0.0" labelRatioY="0.0" nodeRatioX="0.0" nodeRatioY="0.0" offsetX="0.0" offsetY="0.0" upX="0.0" upY="-1.0"/></y:ModelParameter></y:NodeLabel>
          <y:UML clipContent="true" constraint="" hasDetailsColor="false" omitDetails="false" stereotype="" use3DEffect="true">
            <y:AttributeLabel xml:space="preserve">- connector : Connector
- gameClass : Game*
- manager : RepositoryManager
- repository : Repository
- sendToUser : DrawActivity
- userHandler : InputHandler
- userAnswerMaker : ServerAnswerFactory
- acceptedUserData : ActionQueue
- sendedUserData : SpriteQueue
- startGame : GameWindow
- timeManager : Time
</y:AttributeLabel>
            <y:MethodLabel xml:space="preserve">+GameCreate(conn : Connector) : Game*
+ RunLoop() : void
- Game(conn : Connector)</y:MethodLabel>
          </y:UML>
        </y:UMLClassNode>
      </data>
    </node>
    <node id="n2">
      <data key="d4" xml:space="preserve"/>
      <data key="d6">
        <y:UMLNoteNode>
          <y:Geometry height="28.0" width="100.0" x="-712.9796212119766" y="-409.510521601595"/>
          <y:Fill color="#FFCC00" transparent="false"/>
          <y:BorderStyle color="#000000" type="line" width="1.0"/>
          <y:NodeLabel alignment="center" autoSizePolicy="content" fontFamily="Dialog" fontSize="12" fontStyle="plain" hasBackgroundColor="false" hasLineColor="false" height="17.96875" horizontalTextPosition="center" iconTextGap="4" modelName="custom" textColor="#000000" verticalTextPosition="bottom" visible="true" width="67.92578125" x="16.037109375" xml:space="preserve" y="5.015625">Singletone<y:LabelModel><y:SmartNodeLabelModel distance="4.0"/></y:LabelModel><y:ModelParameter><y:SmartNodeLabelModelParameter labelRatioX="0.0" labelRatioY="0.0" nodeRatioX="0.0" nodeRatioY="0.0" offsetX="0.0" offsetY="0.0" upX="0.0" upY="-1.0"/></y:ModelParameter></y:NodeLabel>
        </y:UMLNoteNode>
      </data>
    </node>
    <node id="n3" yfiles.foldertype="group">
      <data key="d4" xml:space="preserve"/>
      <data key="d6">
        <y:ProxyAutoBoundsNode>
          <y:Realizers active="0">
            <y:GroupNode>
              <y:Geometry height="657.4604608271757" width="623.6189989219702" x="-2665.6127189695894" y="79.90294114512656"/>
              <y:Fill color="#F5F5F5" transparent="false"/>
              <y:BorderStyle color="#000000" type="dashed" width="1.0"/>
              <y:NodeLabel alignment="right" autoSizePolicy="node_width" backgroundColor="#EBEBEB" borderDistance="0.0" fontFamily="Dialog" fontSize="15" fontStyle="plain" hasLineColor="false" height="21.4609375" horizontalTextPosition="center" iconTextGap="4" modelName="internal" modelPosition="t" textColor="#000000" verticalTextPosition="bottom" visible="true" width="623.6189989219702" x="0.0" xml:space="preserve" y="0.0">DataForUser</y:NodeLabel>
              <y:Shape type="roundrectangle"/>
              <y:State closed="false" closedHeight="50.0" closedWidth="50.0" innerGraphDisplayEnabled="false"/>
              <y:Insets bottom="15" bottomF="15.0" left="15" leftF="15.0" right="15" rightF="15.0" top="15" topF="15.0"/>
              <y:BorderInsets bottom="0" bottomF="0.0" left="0" leftF="0.0" right="0" rightF="0.0" top="0" topF="0.0"/>
            </y:GroupNode>
            <y:GroupNode>
              <y:Geometry height="50.0" width="50.0" x="120.0" y="60.0"/>
              <y:Fill color="#F2F0D8" transparent="false"/>
              <y:BorderStyle color="#000000" type="line" width="1.0"/>
              <y:NodeLabel alignment="right" autoSizePolicy="node_width" backgroundColor="#B7B69E" borderDistance="0.0" fontFamily="Dialog" fontSize="15" fontStyle="plain" hasLineColor="false" height="21.4609375" horizontalTextPosition="center" iconTextGap="4" modelName="internal" modelPosition="t" textColor="#000000" verticalTextPosition="bottom" visible="true" width="65.201171875" x="-7.6005859375" xml:space="preserve" y="0.0">Folder 6</y:NodeLabel>
              <y:Shape type="rectangle"/>
              <y:DropShadow color="#D2D2D2" offsetX="4" offsetY="4"/>
              <y:State closed="true" closedHeight="50.0" closedWidth="50.0" innerGraphDisplayEnabled="false"/>
              <y:Insets bottom="5" bottomF="5.0" left="5" leftF="5.0" right="5" rightF="5.0" top="5" topF="5.0"/>
              <y:BorderInsets bottom="0" bottomF="0.0" left="0" leftF="0.0" right="0" rightF="0.0" top="0" topF="0.0"/>
            </y:GroupNode>
          </y:Realizers>
        </y:ProxyAutoBoundsNode>
      </data>
      <graph edgedefault="directed" id="n3:">
        <node id="n3::n0">
          <data key="d6">
            <y:UMLClassNode>
              <y:Geometry height="106.8549233929545" width="304.24087999999983" x="-2361.234600047619" y="253.21880203808112"/>
              <y:Fill color="#607D8B" transparent="false"/>
              <y:BorderStyle color="#FFFFFF" type="line" width="1.0"/>
              <y:NodeLabel alignment="center" autoSizePolicy="content" fontFamily="Dialog" fontSize="13" fontStyle="bold" hasBackgroundColor="false" hasLineColor="false" height="19.1328125" horizontalTextPosition="center" iconTextGap="4" modelName="internal" modelPosition="t" textColor="#FFFFFF" verticalTextPosition="bottom" visible="true" width="95.76171875" x="104.23958062499992" xml:space="preserve" y="3.0">SpriteQueue</y:NodeLabel>
              <y:UML clipContent="true" constraint="" detailsColor="#FFFFFF" omitDetails="false" stereotype="" use3DEffect="false">
                <y:AttributeLabel xml:space="preserve">- queue&lt;pair&lt;Position,Sprite&gt;&gt; spriteQueue
</y:AttributeLabel>
                <y:MethodLabel xml:space="preserve">+ pair&lt;Position,Sprite&gt; popStrite()
+ void addStrite(pair&lt;Position,Sprite&gt;)</y:MethodLabel>
              </y:UML>
            </y:UMLClassNode>
          </data>
        </node>
        <node id="n3::n1">
          <data key="d6">
            <y:UMLClassNode>
              <y:Geometry height="106.8549233929545" width="245.75" x="-2361.234600047619" y="116.36387864512656"/>
              <y:Fill color="#607D8B" transparent="false"/>
              <y:BorderStyle color="#FFFFFF" type="line" width="1.0"/>
              <y:NodeLabel alignment="center" autoSizePolicy="content" fontFamily="Dialog" fontSize="13" fontStyle="bold" hasBackgroundColor="false" hasLineColor="false" height="19.1328125" horizontalTextPosition="center" iconTextGap="4" modelName="internal" modelPosition="t" textColor="#FFFFFF" verticalTextPosition="bottom" visible="true" width="105.55615234375" x="70.096923828125" xml:space="preserve" y="3.0">ActionsQueue</y:NodeLabel>
              <y:UML clipContent="true" constraint="" detailsColor="#FFFFFF" omitDetails="false" stereotype="" use3DEffect="false">
                <y:AttributeLabel xml:space="preserve">- queue&lt;string&gt; actionQueue
</y:AttributeLabel>
                <y:MethodLabel xml:space="preserve">+ string popAction()
+ void addAction(string)</y:MethodLabel>
              </y:UML>
            </y:UMLClassNode>
          </data>
        </node>
        <node id="n3::n2" yfiles.foldertype="group">
          <data key="d4" xml:space="preserve"/>
          <data key="d6">
            <y:ProxyAutoBoundsNode>
              <y:Realizers active="0">
                <y:GroupNode>
                  <y:Geometry height="316.2593988031713" width="431.95797955090484" x="-2650.6127189695894" y="406.1040031691309"/>
                  <y:Fill color="#F5F5F5" transparent="false"/>
                  <y:BorderStyle color="#000000" type="dashed" width="1.0"/>
                  <y:NodeLabel alignment="right" autoSizePolicy="node_width" backgroundColor="#EBEBEB" borderDistance="0.0" fontFamily="Dialog" fontSize="15" fontStyle="plain" hasLineColor="false" height="21.4609375" horizontalTextPosition="center" iconTextGap="4" modelName="internal" modelPosition="t" textColor="#000000" verticalTextPosition="bottom" visible="true" width="431.95797955090484" x="0.0" xml:space="preserve" y="0.0">Part of Gubanova Victoria</y:NodeLabel>
                  <y:Shape type="roundrectangle"/>
                  <y:State closed="false" closedHeight="50.0" closedWidth="50.0" innerGraphDisplayEnabled="false"/>
                  <y:Insets bottom="15" bottomF="15.0" left="15" leftF="15.0" right="15" rightF="15.0" top="15" topF="15.0"/>
                  <y:BorderInsets bottom="0" bottomF="0.0" left="0" leftF="0.0" right="0" rightF="0.0" top="0" topF="0.0"/>
                </y:GroupNode>
                <y:GroupNode>
                  <y:Geometry height="50.0" width="50.0" x="120.0" y="60.0"/>
                  <y:Fill color="#F2F0D8" transparent="false"/>
                  <y:BorderStyle color="#000000" type="line" width="1.0"/>
                  <y:NodeLabel alignment="right" autoSizePolicy="node_width" backgroundColor="#B7B69E" borderDistance="0.0" fontFamily="Dialog" fontSize="15" fontStyle="plain" hasLineColor="false" height="21.4609375" horizontalTextPosition="center" iconTextGap="4" modelName="internal" modelPosition="t" textColor="#000000" verticalTextPosition="bottom" visible="true" width="74.74462890625" x="-12.372314453125" xml:space="preserve" y="0.0">Folder 12</y:NodeLabel>
                  <y:Shape type="rectangle"/>
                  <y:DropShadow color="#D2D2D2" offsetX="4" offsetY="4"/>
                  <y:State closed="true" closedHeight="50.0" closedWidth="50.0" innerGraphDisplayEnabled="false"/>
                  <y:Insets bottom="5" bottomF="5.0" left="5" leftF="5.0" right="5" rightF="5.0" top="5" topF="5.0"/>
                  <y:BorderInsets bottom="0" bottomF="0.0" left="0" leftF="0.0" right="0" rightF="0.0" top="0" topF="0.0"/>
                </y:GroupNode>
              </y:Realizers>
            </y:ProxyAutoBoundsNode>
          </data>
          <graph edgedefault="directed" id="n3::n2:">
            <node id="n3::n2::n0">
              <data key="d6">
                <y:UMLClassNode>
                  <y:Geometry height="264.7984613031713" width="401.95797955090484" x="-2635.6127189695894" y="442.5649406691309"/>
                  <y:Fill color="#607D8B" transparent="false"/>
                  <y:BorderStyle color="#FFFFFF" type="line" width="1.0"/>
                  <y:NodeLabel alignment="center" autoSizePolicy="content" fontFamily="Dialog" fontSize="13" fontStyle="bold" hasBackgroundColor="false" hasLineColor="false" height="19.1328125" horizontalTextPosition="center" iconTextGap="4" modelName="internal" modelPosition="t" textColor="#FFFFFF" verticalTextPosition="bottom" visible="true" width="104.1025390625" x="148.92772024420242" xml:space="preserve" y="3.0">GameWindow</y:NodeLabel>
                  <y:UML clipContent="true" constraint="" detailsColor="#FFFFFF" omitDetails="false" stereotype="" use3DEffect="false">
                    <y:AttributeLabel xml:space="preserve">- static GameWindow* instance_
- shared_ptr&lt;GameMenu&gt; gameMenu_
- shared_ptr&lt;GameLobby&gt; gameLobby_

+ ActionsQueue* actionsQueue_
+ SpriteQueue* spriteQueue_
</y:AttributeLabel>
                    <y:MethodLabel xml:space="preserve">- GameWindow()
- GameWindow(const GameWindow&amp;)
- GameWindow&amp; operator=(GameWindow&amp;)

+ static GameWindow* getInstance(ActionsQueue*, SpriteQueue*)</y:MethodLabel>
                  </y:UML>
                </y:UMLClassNode>
              </data>
            </node>
          </graph>
        </node>
      </graph>
    </node>
    <node id="n4" yfiles.foldertype="group">
      <data key="d4" xml:space="preserve"/>
      <data key="d6">
        <y:ProxyAutoBoundsNode>
          <y:Realizers active="0">
            <y:GroupNode>
              <y:Geometry height="616.6137665109076" width="568.2984926715915" x="-313.7989574415716" y="33.73984077050045"/>
              <y:Fill color="#F5F5F5" transparent="false"/>
              <y:BorderStyle color="#000000" type="dashed" width="1.0"/>
              <y:NodeLabel alignment="right" autoSizePolicy="node_width" backgroundColor="#EBEBEB" borderDistance="0.0" fontFamily="Dialog" fontSize="15" fontStyle="plain" hasLineColor="false" height="21.4609375" horizontalTextPosition="center" iconTextGap="4" modelName="internal" modelPosition="t" textColor="#000000" verticalTextPosition="bottom" visible="true" width="568.2984926715915" x="0.0" xml:space="preserve" y="0.0">UserChecker</y:NodeLabel>
              <y:Shape type="roundrectangle"/>
              <y:State closed="false" closedHeight="50.0" closedWidth="50.0" innerGraphDisplayEnabled="false"/>
              <y:Insets bottom="15" bottomF="15.0" left="15" leftF="15.0" right="15" rightF="15.0" top="15" topF="15.0"/>
              <y:BorderInsets bottom="0" bottomF="0.0" left="0" leftF="0.0" right="0" rightF="0.0" top="0" topF="0.0"/>
            </y:GroupNode>
            <y:GroupNode>
              <y:Geometry height="50.0" width="50.0" x="120.0" y="60.0"/>
              <y:Fill color="#F2F0D8" transparent="false"/>
              <y:BorderStyle color="#000000" type="line" width="1.0"/>
              <y:NodeLabel alignment="right" autoSizePolicy="node_width" backgroundColor="#B7B69E" borderDistance="0.0" fontFamily="Dialog" fontSize="15" fontStyle="plain" hasLineColor="false" height="21.4609375" horizontalTextPosition="center" iconTextGap="4" modelName="internal" modelPosition="t" textColor="#000000" verticalTextPosition="bottom" visible="true" width="65.201171875" x="-7.6005859375" xml:space="preserve" y="0.0">Folder 7</y:NodeLabel>
              <y:Shape type="rectangle"/>
              <y:DropShadow color="#D2D2D2" offsetX="4" offsetY="4"/>
              <y:State closed="true" closedHeight="50.0" closedWidth="50.0" innerGraphDisplayEnabled="false"/>
              <y:Insets bottom="5" bottomF="5.0" left="5" leftF="5.0" right="5" rightF="5.0" top="5" topF="5.0"/>
              <y:BorderInsets bottom="0" bottomF="0.0" left="0" leftF="0.0" right="0" rightF="0.0" top="0" topF="0.0"/>
            </y:GroupNode>
          </y:Realizers>
        </y:ProxyAutoBoundsNode>
      </data>
      <graph edgedefault="directed" id="n4:">
        <node id="n4::n0" yfiles.foldertype="group">
          <data key="d4" xml:space="preserve"/>
          <data key="d6">
            <y:ProxyAutoBoundsNode>
              <y:Realizers active="0">
                <y:GroupNode>
                  <y:Geometry height="253.7109374999999" width="538.2984926715915" x="-298.7989574415716" y="70.20077827050045"/>
                  <y:Fill color="#F5F5F5" transparent="false"/>
                  <y:BorderStyle color="#000000" type="dashed" width="1.0"/>
                  <y:NodeLabel alignment="right" autoSizePolicy="node_width" backgroundColor="#EBEBEB" borderDistance="0.0" fontFamily="Dialog" fontSize="15" fontStyle="plain" hasLineColor="false" height="21.4609375" horizontalTextPosition="center" iconTextGap="4" modelName="internal" modelPosition="t" textColor="#000000" verticalTextPosition="bottom" visible="true" width="538.2984926715915" x="0.0" xml:space="preserve" y="0.0">CheckingUserActivity</y:NodeLabel>
                  <y:Shape type="roundrectangle"/>
                  <y:State closed="false" closedHeight="50.0" closedWidth="50.0" innerGraphDisplayEnabled="false"/>
                  <y:Insets bottom="15" bottomF="15.0" left="15" leftF="15.0" right="15" rightF="15.0" top="15" topF="15.0"/>
                  <y:BorderInsets bottom="4" bottomF="4.4952286679364875" left="113" leftF="113.10448990141333" right="101" rightF="101.35400277017823" top="0" topF="0.0"/>
                </y:GroupNode>
                <y:GroupNode>
                  <y:Geometry height="50.0" width="50.0" x="-25.0" y="-25.0"/>
                  <y:Fill color="#F2F0D8" transparent="false"/>
                  <y:BorderStyle color="#000000" type="line" width="1.0"/>
                  <y:NodeLabel alignment="right" autoSizePolicy="node_width" backgroundColor="#B7B69E" borderDistance="0.0" fontFamily="Dialog" fontSize="15" fontStyle="plain" hasLineColor="false" height="21.4609375" horizontalTextPosition="center" iconTextGap="4" modelName="internal" modelPosition="t" textColor="#000000" verticalTextPosition="bottom" visible="true" width="65.201171875" x="-7.6005859375" xml:space="preserve" y="0.0">Folder 3</y:NodeLabel>
                  <y:Shape type="rectangle"/>
                  <y:DropShadow color="#D2D2D2" offsetX="4" offsetY="4"/>
                  <y:State closed="true" closedHeight="50.0" closedWidth="50.0" innerGraphDisplayEnabled="false"/>
                  <y:Insets bottom="5" bottomF="5.0" left="5" leftF="5.0" right="5" rightF="5.0" top="5" topF="5.0"/>
                  <y:BorderInsets bottom="0" bottomF="0.0" left="0" leftF="0.0" right="0" rightF="0.0" top="0" topF="0.0"/>
                </y:GroupNode>
              </y:Realizers>
            </y:ProxyAutoBoundsNode>
          </data>
          <graph edgedefault="directed" id="n4::n0:">
            <node id="n4::n0::n0">
              <data key="d4" xml:space="preserve"/>
              <data key="d6">
                <y:UMLClassNode>
                  <y:Geometry height="197.7547713320634" width="293.8399999999999" x="-170.69446754015826" y="106.66171577050045"/>
                  <y:Fill color="#FFCC00" transparent="false"/>
                  <y:BorderStyle color="#000000" type="line" width="1.0"/>
                  <y:NodeLabel alignment="center" autoSizePolicy="content" fontFamily="Dialog" fontSize="13" fontStyle="bold" hasBackgroundColor="false" hasLineColor="false" height="19.1328125" horizontalTextPosition="center" iconTextGap="4" modelName="custom" textColor="#000000" verticalTextPosition="bottom" visible="true" width="100.763671875" x="96.53816406249996" xml:space="preserve" y="3.0">InputHandler<y:LabelModel><y:SmartNodeLabelModel distance="4.0"/></y:LabelModel><y:ModelParameter><y:SmartNodeLabelModelParameter labelRatioX="0.0" labelRatioY="0.0" nodeRatioX="0.0" nodeRatioY="0.0" offsetX="0.0" offsetY="0.0" upX="0.0" upY="-1.0"/></y:ModelParameter></y:NodeLabel>
                  <y:UML clipContent="true" constraint="" hasDetailsColor="false" omitDetails="false" stereotype="" use3DEffect="true">
                    <y:AttributeLabel xml:space="preserve">- currentCommand : string 
- commandTypes : enum

</y:AttributeLabel>
                    <y:MethodLabel xml:space="preserve">+ handleInput() : IMessage
+ add(command: string) : bool</y:MethodLabel>
                  </y:UML>
                </y:UMLClassNode>
              </data>
            </node>
          </graph>
        </node>
        <node id="n4::n1" yfiles.foldertype="group">
          <data key="d4" xml:space="preserve"/>
          <data key="d6">
            <y:ProxyAutoBoundsNode>
              <y:Realizers active="0">
                <y:GroupNode>
                  <y:Geometry height="235.62093749999985" width="493.17866666666646" x="-297.3577301587311" y="399.73266978140816"/>
                  <y:Fill color="#F5F5F5" transparent="false"/>
                  <y:BorderStyle color="#000000" type="dashed" width="1.0"/>
                  <y:NodeLabel alignment="right" autoSizePolicy="node_width" backgroundColor="#EBEBEB" borderDistance="0.0" fontFamily="Dialog" fontSize="15" fontStyle="plain" hasLineColor="false" height="21.4609375" horizontalTextPosition="center" iconTextGap="4" modelName="internal" modelPosition="t" textColor="#000000" verticalTextPosition="bottom" visible="true" width="493.17866666666646" x="0.0" xml:space="preserve" y="0.0">CheckMainCharacterActivity</y:NodeLabel>
                  <y:Shape type="roundrectangle"/>
                  <y:State closed="false" closedHeight="50.0" closedWidth="50.0" innerGraphDisplayEnabled="false"/>
                  <y:Insets bottom="15" bottomF="15.0" left="15" leftF="15.0" right="15" rightF="15.0" top="15" topF="15.0"/>
                  <y:BorderInsets bottom="0" bottomF="0.0" left="0" leftF="0.0" right="0" rightF="0.0" top="0" topF="0.0"/>
                </y:GroupNode>
                <y:GroupNode>
                  <y:Geometry height="50.0" width="50.0" x="-25.0" y="-25.0"/>
                  <y:Fill color="#F2F0D8" transparent="false"/>
                  <y:BorderStyle color="#000000" type="line" width="1.0"/>
                  <y:NodeLabel alignment="right" autoSizePolicy="node_width" backgroundColor="#B7B69E" borderDistance="0.0" fontFamily="Dialog" fontSize="15" fontStyle="plain" hasLineColor="false" height="21.4609375" horizontalTextPosition="center" iconTextGap="4" modelName="internal" modelPosition="t" textColor="#000000" verticalTextPosition="bottom" visible="true" width="65.201171875" x="-7.6005859375" xml:space="preserve" y="0.0">Folder 5</y:NodeLabel>
                  <y:Shape type="rectangle"/>
                  <y:DropShadow color="#D2D2D2" offsetX="4" offsetY="4"/>
                  <y:State closed="true" closedHeight="50.0" closedWidth="50.0" innerGraphDisplayEnabled="false"/>
                  <y:Insets bottom="5" bottomF="5.0" left="5" leftF="5.0" right="5" rightF="5.0" top="5" topF="5.0"/>
                  <y:BorderInsets bottom="0" bottomF="0.0" left="0" leftF="0.0" right="0" rightF="0.0" top="0" topF="0.0"/>
                </y:GroupNode>
              </y:Realizers>
            </y:ProxyAutoBoundsNode>
          </data>
          <graph edgedefault="directed" id="n4::n1:">
            <node id="n4::n1::n0">
              <data key="d4" xml:space="preserve"/>
              <data key="d6">
                <y:UMLClassNode>
                  <y:Geometry height="184.15999999999985" width="463.17866666666646" x="-282.3577301587311" y="436.19360728140816"/>
                  <y:Fill color="#FFCC00" transparent="false"/>
                  <y:BorderStyle color="#000000" type="line" width="1.0"/>
                  <y:NodeLabel alignment="center" autoSizePolicy="content" fontFamily="Dialog" fontSize="13" fontStyle="bold" hasBackgroundColor="false" hasLineColor="false" height="19.1328125" horizontalTextPosition="center" iconTextGap="4" modelName="custom" textColor="#000000" verticalTextPosition="bottom" visible="true" width="140.77294921875" x="161.20285872395823" xml:space="preserve" y="3.0">UserActivityQueue<y:LabelModel><y:SmartNodeLabelModel distance="4.0"/></y:LabelModel><y:ModelParameter><y:SmartNodeLabelModelParameter labelRatioX="0.0" labelRatioY="0.0" nodeRatioX="0.0" nodeRatioY="0.0" offsetX="0.0" offsetY="0.0" upX="0.0" upY="-1.0"/></y:ModelParameter></y:NodeLabel>
                  <y:UML clipContent="true" constraint="" hasDetailsColor="false" omitDetails="false" stereotype="" use3DEffect="true">
                    <y:AttributeLabel xml:space="preserve">- activityQueue: queue&lt;pair&lt;actionType: string,coordinate: Position&gt;&gt;
- Player *mainPlayer;
</y:AttributeLabel>
                    <y:MethodLabel xml:space="preserve">+ add(newAct: string, newPosition: Position): void
+ compare(checkAction: pair&lt;string,Position&gt;): bool
+ UserActivityQueue(Player)
- deleteAction(): void 


</y:MethodLabel>
                  </y:UML>
                </y:UMLClassNode>
              </data>
            </node>
          </graph>
        </node>
      </graph>
    </node>
    <node id="n5" yfiles.foldertype="group">
      <data key="d4" xml:space="preserve"/>
      <data key="d6">
        <y:ProxyAutoBoundsNode>
          <y:Realizers active="0">
            <y:GroupNode>
              <y:Geometry height="754.4648801617011" width="1697.9375643089948" x="-1171.292650200567" y="1213.47018366169"/>
              <y:Fill color="#F5F5F5" transparent="false"/>
              <y:BorderStyle color="#000000" type="dashed" width="1.0"/>
              <y:NodeLabel alignment="right" autoSizePolicy="node_width" backgroundColor="#EBEBEB" borderDistance="0.0" fontFamily="Dialog" fontSize="15" fontStyle="plain" hasLineColor="false" height="21.4609375" horizontalTextPosition="center" iconTextGap="4" modelName="internal" modelPosition="t" textColor="#000000" verticalTextPosition="bottom" visible="true" width="1697.9375643089948" x="0.0" xml:space="preserve" y="0.0">ServerPart</y:NodeLabel>
              <y:Shape type="roundrectangle"/>
              <y:State closed="false" closedHeight="50.0" closedWidth="50.0" innerGraphDisplayEnabled="false"/>
              <y:Insets bottom="15" bottomF="15.0" left="15" leftF="15.0" right="15" rightF="15.0" top="15" topF="15.0"/>
              <y:BorderInsets bottom="76" bottomF="75.84013165714282" left="0" leftF="0.0" right="0" rightF="0.0" top="0" topF="0.0"/>
            </y:GroupNode>
            <y:GroupNode>
              <y:Geometry height="50.0" width="50.0" x="120.0" y="60.0"/>
              <y:Fill color="#F2F0D8" transparent="false"/>
              <y:BorderStyle color="#000000" type="line" width="1.0"/>
              <y:NodeLabel alignment="right" autoSizePolicy="node_width" backgroundColor="#B7B69E" borderDistance="0.0" fontFamily="Dialog" fontSize="15" fontStyle="plain" hasLineColor="false" height="21.4609375" horizontalTextPosition="center" iconTextGap="4" modelName="internal" modelPosition="t" textColor="#000000" verticalTextPosition="bottom" visible="true" width="74.74462890625" x="-12.372314453125" xml:space="preserve" y="0.0">Folder 10</y:NodeLabel>
              <y:Shape type="rectangle"/>
              <y:DropShadow color="#D2D2D2" offsetX="4" offsetY="4"/>
              <y:State closed="true" closedHeight="50.0" closedWidth="50.0" innerGraphDisplayEnabled="false"/>
              <y:Insets bottom="5" bottomF="5.0" left="5" leftF="5.0" right="5" rightF="5.0" top="5" topF="5.0"/>
              <y:BorderInsets bottom="0" bottomF="0.0" left="0" leftF="0.0" right="0" rightF="0.0" top="0" topF="0.0"/>
            </y:GroupNode>
          </y:Realizers>
        </y:ProxyAutoBoundsNode>
      </data>
      <graph edgedefault="directed" id="n5:">
        <node id="n5::n0" yfiles.foldertype="group">
          <data key="d4" xml:space="preserve"/>
          <data key="d6">
            <y:ProxyAutoBoundsNode>
              <y:Realizers active="0">
                <y:GroupNode>
                  <y:Geometry height="362.3109374999999" width="321.74765714285695" x="-876.4463883592971" y="1514.7839946662484"/>
                  <y:Fill color="#F5F5F5" transparent="false"/>
                  <y:BorderStyle color="#000000" type="dashed" width="1.0"/>
                  <y:NodeLabel alignment="right" autoSizePolicy="node_width" backgroundColor="#EBEBEB" borderDistance="0.0" fontFamily="Dialog" fontSize="15" fontStyle="plain" hasLineColor="false" height="21.4609375" horizontalTextPosition="center" iconTextGap="4" modelName="internal" modelPosition="t" textColor="#000000" verticalTextPosition="bottom" visible="true" width="321.74765714285695" x="0.0" xml:space="preserve" y="0.0">MessagesToServer</y:NodeLabel>
                  <y:Shape type="roundrectangle"/>
                  <y:State closed="false" closedHeight="50.0" closedWidth="50.0" innerGraphDisplayEnabled="false"/>
                  <y:Insets bottom="15" bottomF="15.0" left="15" leftF="15.0" right="15" rightF="15.0" top="15" topF="15.0"/>
                  <y:BorderInsets bottom="0" bottomF="0.0" left="0" leftF="0.0" right="28" rightF="27.907657142857033" top="0" topF="0.0"/>
                </y:GroupNode>
                <y:GroupNode>
                  <y:Geometry height="50.0" width="50.0" x="-25.0" y="-25.0"/>
                  <y:Fill color="#F2F0D8" transparent="false"/>
                  <y:BorderStyle color="#000000" type="line" width="1.0"/>
                  <y:NodeLabel alignment="right" autoSizePolicy="node_width" backgroundColor="#B7B69E" borderDistance="0.0" fontFamily="Dialog" fontSize="15" fontStyle="plain" hasLineColor="false" height="21.4609375" horizontalTextPosition="center" iconTextGap="4" modelName="internal" modelPosition="t" textColor="#000000" verticalTextPosition="bottom" visible="true" width="65.201171875" x="-7.6005859375" xml:space="preserve" y="0.0">Folder 4</y:NodeLabel>
                  <y:Shape type="rectangle"/>
                  <y:DropShadow color="#D2D2D2" offsetX="4" offsetY="4"/>
                  <y:State closed="true" closedHeight="50.0" closedWidth="50.0" innerGraphDisplayEnabled="false"/>
                  <y:Insets bottom="5" bottomF="5.0" left="5" leftF="5.0" right="5" rightF="5.0" top="5" topF="5.0"/>
                  <y:BorderInsets bottom="0" bottomF="0.0" left="0" leftF="0.0" right="0" rightF="0.0" top="0" topF="0.0"/>
                </y:GroupNode>
              </y:Realizers>
            </y:ProxyAutoBoundsNode>
          </data>
          <graph edgedefault="directed" id="n5::n0:">
            <node id="n5::n0::n0">
              <data key="d4" xml:space="preserve"/>
              <data key="d6">
                <y:UMLClassNode>
                  <y:Geometry height="106.18666666666672" width="263.8399999999999" x="-861.4463883592971" y="1551.2449321662484"/>
                  <y:Fill color="#FFCC00" transparent="false"/>
                  <y:BorderStyle color="#000000" type="line" width="1.0"/>
                  <y:NodeLabel alignment="center" autoSizePolicy="content" fontFamily="Dialog" fontSize="13" fontStyle="bold" hasBackgroundColor="false" hasLineColor="false" height="19.1328125" horizontalTextPosition="center" iconTextGap="4" modelName="custom" textColor="#000000" verticalTextPosition="bottom" visible="true" width="72.9609375" x="95.43953124999996" xml:space="preserve" y="25.96875">IMessage<y:LabelModel><y:SmartNodeLabelModel distance="4.0"/></y:LabelModel><y:ModelParameter><y:SmartNodeLabelModelParameter labelRatioX="0.0" labelRatioY="0.0" nodeRatioX="0.0" nodeRatioY="0.0" offsetX="0.0" offsetY="0.0" upX="0.0" upY="-1.0"/></y:ModelParameter></y:NodeLabel>
                  <y:UML clipContent="true" constraint="" hasDetailsColor="false" omitDetails="false" stereotype="&lt;&lt; interface &gt;&gt;" use3DEffect="true">
                    <y:AttributeLabel xml:space="preserve"/>
                    <y:MethodLabel xml:space="preserve">+ IMessage(type: enum MessageType)
+ string getType();</y:MethodLabel>
                  </y:UML>
                </y:UMLClassNode>
              </data>
            </node>
            <node id="n5::n0::n1">
              <data key="d4" xml:space="preserve"/>
              <data key="d6">
                <y:UMLClassNode>
                  <y:Geometry height="126.40000000000009" width="214.39999999999986" x="-836.7263883592973" y="1735.6949321662482"/>
                  <y:Fill color="#FFCC00" transparent="false"/>
                  <y:BorderStyle color="#000000" type="line" width="1.0"/>
                  <y:NodeLabel alignment="center" autoSizePolicy="content" fontFamily="Dialog" fontSize="13" fontStyle="bold" hasBackgroundColor="false" hasLineColor="false" height="19.1328125" horizontalTextPosition="center" iconTextGap="4" modelName="custom" textColor="#000000" verticalTextPosition="bottom" visible="true" width="130.60400390625" x="41.89799804687493" xml:space="preserve" y="3.0">CLIENT_PACKAGE<y:LabelModel><y:SmartNodeLabelModel distance="4.0"/></y:LabelModel><y:ModelParameter><y:SmartNodeLabelModelParameter labelRatioX="0.0" labelRatioY="0.0" nodeRatioX="0.0" nodeRatioY="0.0" offsetX="0.0" offsetY="0.0" upX="0.0" upY="-1.0"/></y:ModelParameter></y:NodeLabel>
                  <y:UML clipContent="true" constraint="" hasDetailsColor="false" omitDetails="false" stereotype="" use3DEffect="true">
                    <y:AttributeLabel xml:space="preserve">#typeOfMessage: string
#commandTime: double</y:AttributeLabel>
                    <y:MethodLabel xml:space="preserve"/>
                  </y:UML>
                </y:UMLClassNode>
              </data>
            </node>
          </graph>
        </node>
        <node id="n5::n1" yfiles.foldertype="group">
          <data key="d4" xml:space="preserve"/>
          <data key="d6">
            <y:ProxyAutoBoundsNode>
              <y:Realizers active="0">
                <y:GroupNode>
                  <y:Geometry height="199.43480416666694" width="897.6714747936509" x="-1156.292650200567" y="1249.93112116169"/>
                  <y:Fill color="#F5F5F5" transparent="false"/>
                  <y:BorderStyle color="#000000" type="dashed" width="1.0"/>
                  <y:NodeLabel alignment="right" autoSizePolicy="node_width" backgroundColor="#EBEBEB" borderDistance="0.0" fontFamily="Dialog" fontSize="15" fontStyle="plain" hasLineColor="false" height="21.4609375" horizontalTextPosition="center" iconTextGap="4" modelName="internal" modelPosition="t" textColor="#000000" verticalTextPosition="bottom" visible="true" width="897.6714747936509" x="0.0" xml:space="preserve" y="0.0">ServerConnector</y:NodeLabel>
                  <y:Shape type="roundrectangle"/>
                  <y:State closed="false" closedHeight="50.0" closedWidth="50.0" innerGraphDisplayEnabled="false"/>
                  <y:Insets bottom="15" bottomF="15.0" left="15" leftF="15.0" right="15" rightF="15.0" top="15" topF="15.0"/>
                  <y:BorderInsets bottom="0" bottomF="0.0" left="0" leftF="0.0" right="44" rightF="44.13895111111128" top="8" topF="8.426133333333382"/>
                </y:GroupNode>
                <y:GroupNode>
                  <y:Geometry height="50.0" width="50.0" x="120.0" y="60.0"/>
                  <y:Fill color="#F2F0D8" transparent="false"/>
                  <y:BorderStyle color="#000000" type="line" width="1.0"/>
                  <y:NodeLabel alignment="right" autoSizePolicy="node_width" backgroundColor="#B7B69E" borderDistance="0.0" fontFamily="Dialog" fontSize="15" fontStyle="plain" hasLineColor="false" height="21.4609375" horizontalTextPosition="center" iconTextGap="4" modelName="internal" modelPosition="t" textColor="#000000" verticalTextPosition="bottom" visible="true" width="65.201171875" x="-7.6005859375" xml:space="preserve" y="0.0">Folder 9</y:NodeLabel>
                  <y:Shape type="rectangle"/>
                  <y:DropShadow color="#D2D2D2" offsetX="4" offsetY="4"/>
                  <y:State closed="true" closedHeight="50.0" closedWidth="50.0" innerGraphDisplayEnabled="false"/>
                  <y:Insets bottom="5" bottomF="5.0" left="5" leftF="5.0" right="5" rightF="5.0" top="5" topF="5.0"/>
                  <y:BorderInsets bottom="0" bottomF="0.0" left="0" leftF="0.0" right="0" rightF="0.0" top="0" topF="0.0"/>
                </y:GroupNode>
              </y:Realizers>
            </y:ProxyAutoBoundsNode>
          </data>
          <graph edgedefault="directed" id="n5::n1:">
            <node id="n5::n1::n0">
              <data key="d4" xml:space="preserve"/>
              <data key="d6">
                <y:UMLClassNode>
                  <y:Geometry height="139.54773333333355" width="823.5325236825396" x="-1141.292650200567" y="1294.8181919950234"/>
                  <y:Fill color="#FFCC00" transparent="false"/>
                  <y:BorderStyle color="#000000" type="line" width="1.0"/>
                  <y:NodeLabel alignment="center" autoSizePolicy="content" fontFamily="Dialog" fontSize="13" fontStyle="bold" hasBackgroundColor="false" hasLineColor="false" height="19.1328125" horizontalTextPosition="center" iconTextGap="4" modelName="custom" textColor="#000000" verticalTextPosition="bottom" visible="true" width="79.06103515625" x="372.2357442631448" xml:space="preserve" y="3.0">Connector<y:LabelModel><y:SmartNodeLabelModel distance="4.0"/></y:LabelModel><y:ModelParameter><y:SmartNodeLabelModelParameter labelRatioX="0.0" labelRatioY="0.0" nodeRatioX="0.0" nodeRatioY="0.0" offsetX="0.0" offsetY="0.0" upX="0.0" upY="-1.0"/></y:ModelParameter></y:NodeLabel>
                  <y:UML clipContent="true" constraint="" hasDetailsColor="false" omitDetails="false" stereotype="" use3DEffect="true">
                    <y:AttributeLabel xml:space="preserve">- event_loop : std::weak_ptr&lt;EventLoop&gt;</y:AttributeLabel>
                    <y:MethodLabel xml:space="preserve">+Connector()
+ send(message : std:: shared_ptr&lt;IMessage&gt;) : void
+registerEvent(handler :std::shared_ptr&lt;IMessage&gt; (*IEventHandler)(std::shared_ptr&lt;IMessage&gt; message);r, type : std::string) : void 
+ resetEvent(type : ::std::string) : void</y:MethodLabel>
                  </y:UML>
                </y:UMLClassNode>
              </data>
            </node>
          </graph>
        </node>
        <node id="n5::n2" yfiles.foldertype="group">
          <data key="d4" xml:space="preserve"/>
          <data key="d6">
            <y:ProxyAutoBoundsNode>
              <y:Realizers active="0">
                <y:GroupNode>
                  <y:Geometry height="177.8609375000001" width="564.3894611978834" x="-52.74454708945575" y="1256.504987828357"/>
                  <y:Fill color="#F5F5F5" transparent="false"/>
                  <y:BorderStyle color="#000000" type="dashed" width="1.0"/>
                  <y:NodeLabel alignment="right" autoSizePolicy="node_width" backgroundColor="#EBEBEB" borderDistance="0.0" fontFamily="Dialog" fontSize="15" fontStyle="plain" hasLineColor="false" height="21.4609375" horizontalTextPosition="center" iconTextGap="4" modelName="internal" modelPosition="t" textColor="#000000" verticalTextPosition="bottom" visible="true" width="564.3894611978834" x="0.0" xml:space="preserve" y="0.0">ServerAnswerer</y:NodeLabel>
                  <y:Shape type="roundrectangle"/>
                  <y:State closed="false" closedHeight="50.0" closedWidth="50.0" innerGraphDisplayEnabled="false"/>
                  <y:Insets bottom="15" bottomF="15.0" left="15" leftF="15.0" right="15" rightF="15.0" top="15" topF="15.0"/>
                  <y:BorderInsets bottom="0" bottomF="0.0" left="28" leftF="27.907657142857033" right="0" rightF="0.0" top="0" topF="0.0"/>
                </y:GroupNode>
                <y:GroupNode>
                  <y:Geometry height="50.0" width="50.0" x="120.0" y="60.0"/>
                  <y:Fill color="#F2F0D8" transparent="false"/>
                  <y:BorderStyle color="#000000" type="line" width="1.0"/>
                  <y:NodeLabel alignment="right" autoSizePolicy="node_width" backgroundColor="#B7B69E" borderDistance="0.0" fontFamily="Dialog" fontSize="15" fontStyle="plain" hasLineColor="false" height="21.4609375" horizontalTextPosition="center" iconTextGap="4" modelName="internal" modelPosition="t" textColor="#000000" verticalTextPosition="bottom" visible="true" width="74.74462890625" x="-12.372314453125" xml:space="preserve" y="0.0">Folder 10</y:NodeLabel>
                  <y:Shape type="rectangle"/>
                  <y:DropShadow color="#D2D2D2" offsetX="4" offsetY="4"/>
                  <y:State closed="true" closedHeight="50.0" closedWidth="50.0" innerGraphDisplayEnabled="false"/>
                  <y:Insets bottom="5" bottomF="5.0" left="5" leftF="5.0" right="5" rightF="5.0" top="5" topF="5.0"/>
                  <y:BorderInsets bottom="0" bottomF="0.0" left="0" leftF="0.0" right="0" rightF="0.0" top="0" topF="0.0"/>
                </y:GroupNode>
              </y:Realizers>
            </y:ProxyAutoBoundsNode>
          </data>
          <graph edgedefault="directed" id="n5::n2:">
            <node id="n5::n2::n0">
              <data key="d4" xml:space="preserve"/>
              <data key="d6">
                <y:UMLClassNode>
                  <y:Geometry height="126.40000000000009" width="506.4818040550264" x="-9.836889946598717" y="1292.965925328357"/>
                  <y:Fill color="#FFCC00" transparent="false"/>
                  <y:BorderStyle color="#000000" type="line" width="1.0"/>
                  <y:NodeLabel alignment="center" autoSizePolicy="content" fontFamily="Dialog" fontSize="13" fontStyle="bold" hasBackgroundColor="false" hasLineColor="false" height="19.1328125" horizontalTextPosition="center" iconTextGap="4" modelName="custom" textColor="#000000" verticalTextPosition="bottom" visible="true" width="161.97412109375" x="172.2538414806382" xml:space="preserve" y="3.0">ServerAnswerFactory<y:LabelModel><y:SmartNodeLabelModel distance="4.0"/></y:LabelModel><y:ModelParameter><y:SmartNodeLabelModelParameter labelRatioX="0.0" labelRatioY="0.0" nodeRatioX="0.0" nodeRatioY="0.0" offsetX="0.0" offsetY="0.0" upX="0.0" upY="-1.0"/></y:ModelParameter></y:NodeLabel>
                  <y:UML clipContent="true" constraint="" hasDetailsColor="false" omitDetails="false" stereotype="" use3DEffect="true">
                    <y:AttributeLabel xml:space="preserve">- CommandQueue: queue&lt;pair&lt;string, GameObject*&gt;&gt;
-manager : RepositoryManager*</y:AttributeLabel>
                    <y:MethodLabel xml:space="preserve">+ eventInit(Message : shared_ptr&lt;IMessage&gt;) : std::shared_ptr&lt;IMessage&gt;
+ eventUpdate(Message : shared_ptr&lt;IMessage&gt;) : std::shared_ptr&lt;IMessage&gt;
+ returnCommands( drawingClass : BasicDraw*) : void
- saveTovault() : void</y:MethodLabel>
                  </y:UML>
                </y:UMLClassNode>
              </data>
            </node>
          </graph>
        </node>
      </graph>
    </node>
    <node id="n6" yfiles.foldertype="group">
      <data key="d4" xml:space="preserve"/>
      <data key="d6">
        <y:ProxyAutoBoundsNode>
          <y:Realizers active="0">
            <y:GroupNode>
              <y:Geometry height="859.6482856567984" width="1154.7559734662082" x="378.3513743238128" y="-61.018105118247604"/>
              <y:Fill color="#F5F5F5" transparent="false"/>
              <y:BorderStyle color="#000000" type="dashed" width="1.0"/>
              <y:NodeLabel alignment="right" autoSizePolicy="node_width" backgroundColor="#EBEBEB" borderDistance="0.0" fontFamily="Dialog" fontSize="15" fontStyle="plain" hasLineColor="false" height="21.4609375" horizontalTextPosition="center" iconTextGap="4" modelName="internal" modelPosition="t" textColor="#000000" verticalTextPosition="bottom" visible="true" width="1154.7559734662082" x="0.0" xml:space="preserve" y="0.0">DrawPart</y:NodeLabel>
              <y:Shape type="roundrectangle"/>
              <y:State closed="false" closedHeight="50.0" closedWidth="50.0" innerGraphDisplayEnabled="false"/>
              <y:Insets bottom="15" bottomF="15.0" left="15" leftF="15.0" right="15" rightF="15.0" top="15" topF="15.0"/>
              <y:BorderInsets bottom="0" bottomF="0.0" left="0" leftF="0.0" right="0" rightF="0.0" top="0" topF="0.0"/>
            </y:GroupNode>
            <y:GroupNode>
              <y:Geometry height="50.0" width="50.0" x="120.0" y="60.0"/>
              <y:Fill color="#F2F0D8" transparent="false"/>
              <y:BorderStyle color="#000000" type="line" width="1.0"/>
              <y:NodeLabel alignment="right" autoSizePolicy="node_width" backgroundColor="#B7B69E" borderDistance="0.0" fontFamily="Dialog" fontSize="15" fontStyle="plain" hasLineColor="false" height="21.4609375" horizontalTextPosition="center" iconTextGap="4" modelName="internal" modelPosition="t" textColor="#000000" verticalTextPosition="bottom" visible="true" width="74.74462890625" x="-12.372314453125" xml:space="preserve" y="0.0">Folder 11</y:NodeLabel>
              <y:Shape type="rectangle"/>
              <y:DropShadow color="#D2D2D2" offsetX="4" offsetY="4"/>
              <y:State closed="true" closedHeight="50.0" closedWidth="50.0" innerGraphDisplayEnabled="false"/>
              <y:Insets bottom="5" bottomF="5.0" left="5" leftF="5.0" right="5" rightF="5.0" top="5" topF="5.0"/>
              <y:BorderInsets bottom="0" bottomF="0.0" left="0" leftF="0.0" right="0" rightF="0.0" top="0" topF="0.0"/>
            </y:GroupNode>
          </y:Realizers>
        </y:ProxyAutoBoundsNode>
      </data>
      <graph edgedefault="directed" id="n6:">
        <node id="n6::n0">
          <data key="d4" xml:space="preserve"/>
          <data key="d6">
            <y:UMLClassNode>
              <y:Geometry height="202.2499999999999" width="533.224761904762" x="945.3597866666686" y="165.82529209907187"/>
              <y:Fill color="#FFCC00" transparent="false"/>
              <y:BorderStyle color="#000000" type="line" width="1.0"/>
              <y:NodeLabel alignment="center" autoSizePolicy="content" fontFamily="Dialog" fontSize="13" fontStyle="bold" hasBackgroundColor="false" hasLineColor="false" height="19.1328125" horizontalTextPosition="center" iconTextGap="4" modelName="custom" textColor="#000000" verticalTextPosition="bottom" visible="true" width="98.04052734375" x="217.592117280506" xml:space="preserve" y="3.0">	DrawActivity<y:LabelModel><y:SmartNodeLabelModel distance="4.0"/></y:LabelModel><y:ModelParameter><y:SmartNodeLabelModelParameter labelRatioX="0.0" labelRatioY="0.0" nodeRatioX="0.0" nodeRatioY="0.0" offsetX="0.0" offsetY="0.0" upX="0.0" upY="-1.0"/></y:ModelParameter></y:NodeLabel>
              <y:UML clipContent="true" constraint="" hasDetailsColor="false" omitDetails="false" stereotype="" use3DEffect="true">
                <y:AttributeLabel xml:space="preserve">- activitySequense: queue&lt;pair&lt;actionType: string,GameObject*&gt;&gt;
- activeElements: map&lt;int,GameObject&gt;
- sendingData: queue&lt;pair&lt;Coordinate,Sprite&gt;&gt;
- GUIPhysic: DefPhysic*</y:AttributeLabel>
                <y:MethodLabel xml:space="preserve">+ add(newActivity: pair&lt;actionType: string,GameObject*&gt;) : void
+ drawActivity(drawTime : double) : void
- delete(activeElement: GameObject) : void
- createPackagesForDrawing(): void

</y:MethodLabel>
              </y:UML>
            </y:UMLClassNode>
          </data>
        </node>
        <node id="n6::n1">
          <data key="d4" xml:space="preserve"/>
          <data key="d6">
            <y:UMLClassNode>
              <y:Geometry height="112.79999999999995" width="376.5077739682539" x="438.3868232127017" y="406.23165644807483"/>
              <y:Fill color="#99CC00" transparent="false"/>
              <y:BorderStyle color="#000000" type="line" width="1.0"/>
              <y:NodeLabel alignment="center" autoSizePolicy="content" fontFamily="Dialog" fontSize="13" fontStyle="bold" hasBackgroundColor="false" hasLineColor="false" height="19.1328125" horizontalTextPosition="center" iconTextGap="4" modelName="custom" textColor="#000000" verticalTextPosition="bottom" visible="true" width="76.42041015625" x="150.04368190600195" xml:space="preserve" y="25.96875">DefPhysic<y:LabelModel><y:SmartNodeLabelModel distance="4.0"/></y:LabelModel><y:ModelParameter><y:SmartNodeLabelModelParameter labelRatioX="0.0" labelRatioY="0.0" nodeRatioX="0.0" nodeRatioY="0.0" offsetX="0.0" offsetY="0.0" upX="0.0" upY="-1.0"/></y:ModelParameter></y:NodeLabel>
              <y:UML clipContent="true" constraint="" hasDetailsColor="false" omitDetails="false" stereotype="&lt;&lt; interface &gt;&gt;" use3DEffect="true">
                <y:AttributeLabel xml:space="preserve"/>
                <y:MethodLabel xml:space="preserve">+ update(time: double, GameObject* objectToUpdate): void</y:MethodLabel>
              </y:UML>
            </y:UMLClassNode>
          </data>
        </node>
        <node id="n6::n2">
          <data key="d4" xml:space="preserve"/>
          <data key="d6">
            <y:UMLClassNode>
              <y:Geometry height="133.5999999999999" width="545.6496761904762" x="393.3513743238128" y="650.0301805385509"/>
              <y:Fill color="#FFCC00" transparent="false"/>
              <y:BorderStyle color="#000000" type="line" width="1.0"/>
              <y:NodeLabel alignment="center" autoSizePolicy="content" fontFamily="Dialog" fontSize="13" fontStyle="bold" hasBackgroundColor="false" hasLineColor="false" height="19.1328125" horizontalTextPosition="center" iconTextGap="4" modelName="custom" textColor="#000000" verticalTextPosition="bottom" visible="true" width="89.73779296875" x="227.95594161086308" xml:space="preserve" y="3.0">BasicPhysic<y:LabelModel><y:SmartNodeLabelModel distance="4.0"/></y:LabelModel><y:ModelParameter><y:SmartNodeLabelModelParameter labelRatioX="0.0" labelRatioY="0.0" nodeRatioX="0.0" nodeRatioY="0.0" offsetX="0.0" offsetY="0.0" upX="0.0" upY="-1.0"/></y:ModelParameter></y:NodeLabel>
              <y:UML clipContent="true" constraint="" hasDetailsColor="false" omitDetails="false" stereotype="" use3DEffect="true">
                <y:AttributeLabel xml:space="preserve"/>
                <y:MethodLabel xml:space="preserve">+ update(time: double, GameObject* objectToUpdate) : void</y:MethodLabel>
              </y:UML>
            </y:UMLClassNode>
          </data>
        </node>
        <node id="n6::n3">
          <data key="d4" xml:space="preserve"/>
          <data key="d6">
            <y:UMLClassNode>
              <y:Geometry height="102.56513813942857" width="540.8597582409143" x="977.2475895491066" y="-24.557167618247604"/>
              <y:Fill color="#99CC00" transparent="false"/>
              <y:BorderStyle color="#000000" type="line" width="1.0"/>
              <y:NodeLabel alignment="center" autoSizePolicy="content" fontFamily="Dialog" fontSize="13" fontStyle="bold" hasBackgroundColor="false" hasLineColor="false" height="19.1328125" horizontalTextPosition="center" iconTextGap="4" modelName="custom" textColor="#000000" verticalTextPosition="bottom" visible="true" width="80.5654296875" x="230.14716427670714" xml:space="preserve" y="25.96875">BasicDraw<y:LabelModel><y:SmartNodeLabelModel distance="4.0"/></y:LabelModel><y:ModelParameter><y:SmartNodeLabelModelParameter labelRatioX="0.0" labelRatioY="0.0" nodeRatioX="0.0" nodeRatioY="0.0" offsetX="0.0" offsetY="0.0" upX="0.0" upY="-1.0"/></y:ModelParameter></y:NodeLabel>
              <y:UML clipContent="true" constraint="" hasDetailsColor="false" omitDetails="false" stereotype="&lt;&lt; interface &gt;&gt;" use3DEffect="true">
                <y:AttributeLabel xml:space="preserve"/>
                <y:MethodLabel xml:space="preserve">+ add(newActivity: pair&lt;actionType: string,GameObject*&gt;) : void</y:MethodLabel>
              </y:UML>
            </y:UMLClassNode>
          </data>
        </node>
        <node id="n6::n4">
          <data key="d4" xml:space="preserve"/>
          <data key="d6">
            <y:UMLClassNode>
              <y:Geometry height="110.4319999999999" width="191.3157688888889" x="403.30141433837366" y="106.66171577050045"/>
              <y:Fill color="#FFCC00" transparent="false"/>
              <y:BorderStyle color="#000000" type="line" width="1.0"/>
              <y:NodeLabel alignment="center" autoSizePolicy="content" fontFamily="Dialog" fontSize="13" fontStyle="bold" hasBackgroundColor="false" hasLineColor="false" height="19.1328125" horizontalTextPosition="center" iconTextGap="4" modelName="custom" textColor="#000000" verticalTextPosition="bottom" visible="true" width="39.6865234375" x="75.81462272569445" xml:space="preserve" y="3.0">Time<y:LabelModel><y:SmartNodeLabelModel distance="4.0"/></y:LabelModel><y:ModelParameter><y:SmartNodeLabelModelParameter labelRatioX="0.0" labelRatioY="0.0" nodeRatioX="0.0" nodeRatioY="0.0" offsetX="0.0" offsetY="0.0" upX="0.0" upY="-1.0"/></y:ModelParameter></y:NodeLabel>
              <y:UML clipContent="true" constraint="" hasDetailsColor="false" omitDetails="false" stereotype="" use3DEffect="true">
                <y:AttributeLabel xml:space="preserve">- currentTime : double
- drawTime : double</y:AttributeLabel>
                <y:MethodLabel xml:space="preserve">+ calculateTime() : double
+ startTime() : void</y:MethodLabel>
              </y:UML>
            </y:UMLClassNode>
          </data>
        </node>
      </graph>
    </node>
    <node id="n7" yfiles.foldertype="group">
      <data key="d4" xml:space="preserve"/>
      <data key="d6">
        <y:ProxyAutoBoundsNode>
          <y:Realizers active="0">
            <y:GroupNode>
              <y:Geometry height="803.1582343002308" width="729.7611292461311" x="-2260.5741949439507" y="908.1882115656285"/>
              <y:Fill color="#F5F5F5" transparent="false"/>
              <y:BorderStyle color="#000000" type="dashed" width="1.0"/>
              <y:NodeLabel alignment="right" autoSizePolicy="node_width" backgroundColor="#EBEBEB" borderDistance="0.0" fontFamily="Dialog" fontSize="15" fontStyle="plain" hasLineColor="false" height="21.4609375" horizontalTextPosition="center" iconTextGap="4" modelName="internal" modelPosition="t" textColor="#000000" verticalTextPosition="bottom" visible="true" width="729.7611292461311" x="0.0" xml:space="preserve" y="0.0">UsingDataTypes</y:NodeLabel>
              <y:Shape type="roundrectangle"/>
              <y:State closed="false" closedHeight="50.0" closedWidth="50.0" innerGraphDisplayEnabled="false"/>
              <y:Insets bottom="15" bottomF="15.0" left="15" leftF="15.0" right="15" rightF="15.0" top="15" topF="15.0"/>
              <y:BorderInsets bottom="48" bottomF="48.0" left="0" leftF="0.0" right="0" rightF="0.0" top="0" topF="0.0"/>
            </y:GroupNode>
            <y:GroupNode>
              <y:Geometry height="50.0" width="50.0" x="120.0" y="60.0"/>
              <y:Fill color="#F2F0D8" transparent="false"/>
              <y:BorderStyle color="#000000" type="line" width="1.0"/>
              <y:NodeLabel alignment="right" autoSizePolicy="node_width" backgroundColor="#B7B69E" borderDistance="0.0" fontFamily="Dialog" fontSize="15" fontStyle="plain" hasLineColor="false" height="21.4609375" horizontalTextPosition="center" iconTextGap="4" modelName="internal" modelPosition="t" textColor="#000000" verticalTextPosition="bottom" visible="true" width="74.74462890625" x="-12.372314453125" xml:space="preserve" y="0.0">Folder 12</y:NodeLabel>
              <y:Shape type="rectangle"/>
              <y:DropShadow color="#D2D2D2" offsetX="4" offsetY="4"/>
              <y:State closed="true" closedHeight="50.0" closedWidth="50.0" innerGraphDisplayEnabled="false"/>
              <y:Insets bottom="5" bottomF="5.0" left="5" leftF="5.0" right="5" rightF="5.0" top="5" topF="5.0"/>
              <y:BorderInsets bottom="0" bottomF="0.0" left="0" leftF="0.0" right="0" rightF="0.0" top="0" topF="0.0"/>
            </y:GroupNode>
          </y:Realizers>
        </y:ProxyAutoBoundsNode>
      </data>
      <graph edgedefault="directed" id="n7:">
        <node id="n7::n0">
          <data key="d4" xml:space="preserve"/>
          <data key="d6">
            <y:UMLClassNode>
              <y:Geometry height="126.96526472664539" width="249.15151958584977" x="-2032.935346551006" y="1326.2105620564182"/>
              <y:Fill color="#99CC00" transparent="false"/>
              <y:BorderStyle color="#000000" type="line" width="1.0"/>
              <y:NodeLabel alignment="center" autoSizePolicy="content" fontFamily="Dialog" fontSize="13" fontStyle="bold" hasBackgroundColor="false" hasLineColor="false" height="19.1328125" horizontalTextPosition="center" iconTextGap="4" modelName="custom" textColor="#000000" verticalTextPosition="bottom" visible="true" width="93.35595703125" x="77.89778127729988" xml:space="preserve" y="3.0">GameObject<y:LabelModel><y:SmartNodeLabelModel distance="4.0"/></y:LabelModel><y:ModelParameter><y:SmartNodeLabelModelParameter labelRatioX="0.0" labelRatioY="0.0" nodeRatioX="0.0" nodeRatioY="0.0" offsetX="0.0" offsetY="0.0" upX="0.0" upY="-1.0"/></y:ModelParameter></y:NodeLabel>
              <y:UML clipContent="true" constraint="" hasDetailsColor="false" omitDetails="false" stereotype="" use3DEffect="true">
                <y:AttributeLabel xml:space="preserve">+ currentPosition : Position
+ currentSpeed : pair&lt;double,double&gt;</y:AttributeLabel>
                <y:MethodLabel xml:space="preserve">+ GameObject(...)</y:MethodLabel>
              </y:UML>
            </y:UMLClassNode>
          </data>
        </node>
        <node id="n7::n1">
          <data key="d4" xml:space="preserve"/>
          <data key="d6">
            <y:UMLClassNode>
              <y:Geometry height="106.67122959508447" width="190.08691391429386" x="-1830.2129431115877" y="1541.6752162707749"/>
              <y:Fill color="#33CCCC" transparent="false"/>
              <y:BorderStyle color="#000000" type="line" width="1.0"/>
              <y:NodeLabel alignment="center" autoSizePolicy="content" fontFamily="Dialog" fontSize="13" fontStyle="bold" hasBackgroundColor="false" hasLineColor="false" height="19.1328125" horizontalTextPosition="center" iconTextGap="4" modelName="custom" textColor="#000000" verticalTextPosition="bottom" visible="true" width="50.45849609375" x="69.81420891027193" xml:space="preserve" y="3.0">Player<y:LabelModel><y:SmartNodeLabelModel distance="4.0"/></y:LabelModel><y:ModelParameter><y:SmartNodeLabelModelParameter labelRatioX="0.0" labelRatioY="0.0" nodeRatioX="0.0" nodeRatioY="0.0" offsetX="0.0" offsetY="0.0" upX="0.0" upY="-1.0"/></y:ModelParameter></y:NodeLabel>
              <y:UML clipContent="true" constraint="" hasDetailsColor="false" omitDetails="false" stereotype="" use3DEffect="true">
                <y:AttributeLabel xml:space="preserve">+ playerId : int
+ playerHp : int
+ weapon: Weapon* (pointer)</y:AttributeLabel>
                <y:MethodLabel xml:space="preserve"/>
              </y:UML>
            </y:UMLClassNode>
          </data>
        </node>
        <node id="n7::n2">
          <data key="d4" xml:space="preserve"/>
          <data key="d6">
            <y:UMLClassNode>
              <y:Geometry height="112.2124841967211" width="172.7221969836067" x="-2032.9353465510058" y="1526.6483184347094"/>
              <y:Fill color="#33CCCC" transparent="false"/>
              <y:BorderStyle color="#000000" type="line" width="1.0"/>
              <y:NodeLabel alignment="center" autoSizePolicy="content" fontFamily="Dialog" fontSize="13" fontStyle="bold" hasBackgroundColor="false" hasLineColor="false" height="19.1328125" horizontalTextPosition="center" iconTextGap="4" modelName="custom" textColor="#000000" verticalTextPosition="bottom" visible="true" width="63.42041015625" x="54.65089341367835" xml:space="preserve" y="3.0">Weapon<y:LabelModel><y:SmartNodeLabelModel distance="4.0"/></y:LabelModel><y:ModelParameter><y:SmartNodeLabelModelParameter labelRatioX="0.0" labelRatioY="0.0" nodeRatioX="0.0" nodeRatioY="0.0" offsetX="0.0" offsetY="0.0" upX="0.0" upY="-1.0"/></y:ModelParameter></y:NodeLabel>
              <y:UML clipContent="true" constraint="" hasDetailsColor="false" omitDetails="false" stereotype="" use3DEffect="true">
                <y:AttributeLabel xml:space="preserve">+ isPicked: bool
+ bulletCapacity: int
+ fireSpeed: double
+ timeFromShot: double</y:AttributeLabel>
                <y:MethodLabel xml:space="preserve"/>
              </y:UML>
            </y:UMLClassNode>
          </data>
        </node>
        <node id="n7::n3">
          <data key="d4" xml:space="preserve"/>
          <data key="d6">
            <y:UMLClassNode>
              <y:Geometry height="86.34491803278684" width="153.0255737704917" x="-2215.961241293655" y="1539.5821015166766"/>
              <y:Fill color="#33CCCC" transparent="false"/>
              <y:BorderStyle color="#000000" type="line" width="1.0"/>
              <y:NodeLabel alignment="center" autoSizePolicy="content" fontFamily="Dialog" fontSize="13" fontStyle="bold" hasBackgroundColor="false" hasLineColor="false" height="19.1328125" horizontalTextPosition="center" iconTextGap="4" modelName="custom" textColor="#000000" verticalTextPosition="bottom" visible="true" width="47.10693359375" x="52.959320088370845" xml:space="preserve" y="3.0">Bullet<y:LabelModel><y:SmartNodeLabelModel distance="4.0"/></y:LabelModel><y:ModelParameter><y:SmartNodeLabelModelParameter labelRatioX="0.0" labelRatioY="0.0" nodeRatioX="0.0" nodeRatioY="0.0" offsetX="0.0" offsetY="0.0" upX="0.0" upY="-1.0"/></y:ModelParameter></y:NodeLabel>
              <y:UML clipContent="true" constraint="" hasDetailsColor="false" omitDetails="false" stereotype="" use3DEffect="true">
                <y:AttributeLabel xml:space="preserve">+ damage: int
</y:AttributeLabel>
                <y:MethodLabel xml:space="preserve"/>
              </y:UML>
            </y:UMLClassNode>
          </data>
        </node>
        <node id="n7::n4">
          <data key="d4" xml:space="preserve"/>
          <data key="d6">
            <y:UMLClassNode>
              <y:Geometry height="95.24887272727301" width="158.99023923444997" x="-1980.9371529682978" y="944.6491490656285"/>
              <y:Fill color="#99CC00" transparent="false"/>
              <y:BorderStyle color="#000000" type="line" width="1.0"/>
              <y:NodeLabel alignment="center" autoSizePolicy="content" fontFamily="Dialog" fontSize="13" fontStyle="bold" hasBackgroundColor="false" hasLineColor="false" height="19.1328125" horizontalTextPosition="center" iconTextGap="4" modelName="custom" textColor="#000000" verticalTextPosition="bottom" visible="true" width="48.56689453125" x="55.21167235159999" xml:space="preserve" y="3.0">Sprite<y:LabelModel><y:SmartNodeLabelModel distance="4.0"/></y:LabelModel><y:ModelParameter><y:SmartNodeLabelModelParameter labelRatioX="0.0" labelRatioY="0.0" nodeRatioX="0.0" nodeRatioY="0.0" offsetX="0.0" offsetY="0.0" upX="0.0" upY="-1.0"/></y:ModelParameter></y:NodeLabel>
              <y:UML clipContent="true" constraint="" hasDetailsColor="false" omitDetails="false" stereotype="" use3DEffect="true">
                <y:AttributeLabel xml:space="preserve">+ spriteID : int
+ spriteAction : int
+ spriteFrame : int
+ maxAction : int</y:AttributeLabel>
                <y:MethodLabel xml:space="preserve"/>
              </y:UML>
            </y:UMLClassNode>
          </data>
        </node>
        <node id="n7::n5">
          <data key="d4" xml:space="preserve"/>
          <data key="d6">
            <y:UMLClassNode>
              <y:Geometry height="54.65078405103668" width="130.08959489633173" x="-2245.5741949439507" y="1280.7335549395202"/>
              <y:Fill color="#99CC00" transparent="false"/>
              <y:BorderStyle color="#000000" type="line" width="1.0"/>
              <y:NodeLabel alignment="center" autoSizePolicy="content" fontFamily="Dialog" fontSize="13" fontStyle="bold" hasBackgroundColor="false" hasLineColor="false" height="19.1328125" horizontalTextPosition="center" iconTextGap="4" modelName="custom" textColor="#000000" verticalTextPosition="bottom" visible="true" width="63.50927734375" x="33.290158776290866" xml:space="preserve" y="3.0">Position<y:LabelModel><y:SmartNodeLabelModel distance="4.0"/></y:LabelModel><y:ModelParameter><y:SmartNodeLabelModelParameter labelRatioX="0.0" labelRatioY="0.0" nodeRatioX="0.0" nodeRatioY="0.0" offsetX="0.0" offsetY="0.0" upX="0.0" upY="-1.0"/></y:ModelParameter></y:NodeLabel>
              <y:UML clipContent="true" constraint="" hasDetailsColor="false" omitDetails="false" stereotype="" use3DEffect="true">
                <y:AttributeLabel xml:space="preserve">x, y: double</y:AttributeLabel>
                <y:MethodLabel xml:space="preserve"/>
              </y:UML>
            </y:UMLClassNode>
          </data>
        </node>
        <node id="n7::n6">
          <data key="d4" xml:space="preserve"/>
          <data key="d6">
            <y:UMLClassNode>
              <y:Geometry height="72.84459958857133" width="136.05154084571427" x="-1969.4678037739297" y="1128.4664756759755"/>
              <y:Fill color="#99CC00" transparent="false"/>
              <y:BorderStyle color="#000000" type="line" width="1.0"/>
              <y:NodeLabel alignment="center" autoSizePolicy="content" fontFamily="Dialog" fontSize="13" fontStyle="bold" hasBackgroundColor="false" hasLineColor="false" height="19.1328125" horizontalTextPosition="center" iconTextGap="4" modelName="custom" textColor="#000000" verticalTextPosition="bottom" visible="true" width="105.51171875" x="15.269911047857136" xml:space="preserve" y="3.0">DefaultObject<y:LabelModel><y:SmartNodeLabelModel distance="4.0"/></y:LabelModel><y:ModelParameter><y:SmartNodeLabelModelParameter labelRatioX="0.0" labelRatioY="0.0" nodeRatioX="0.0" nodeRatioY="0.0" offsetX="0.0" offsetY="0.0" upX="0.0" upY="-1.0"/></y:ModelParameter></y:NodeLabel>
              <y:UML clipContent="true" constraint="" hasDetailsColor="false" omitDetails="false" stereotype="" use3DEffect="true">
                <y:AttributeLabel xml:space="preserve">+ sprite : Sprite</y:AttributeLabel>
                <y:MethodLabel xml:space="preserve"/>
              </y:UML>
            </y:UMLClassNode>
          </data>
        </node>
        <node id="n7::n7">
          <data key="d4" xml:space="preserve"/>
          <data key="d6">
            <y:UMLClassNode>
              <y:Geometry height="28.0" width="100.0" x="-1645.8130656978196" y="1222.93112116169"/>
              <y:Fill color="#33CCCC" transparent="false"/>
              <y:BorderStyle color="#000000" type="line" width="1.0"/>
              <y:NodeLabel alignment="center" autoSizePolicy="content" fontFamily="Dialog" fontSize="13" fontStyle="bold" hasBackgroundColor="false" hasLineColor="false" height="19.1328125" horizontalTextPosition="center" iconTextGap="4" modelName="custom" textColor="#000000" verticalTextPosition="bottom" visible="true" width="35.0146484375" x="32.49267578125" xml:space="preserve" y="3.0">Map<y:LabelModel><y:SmartNodeLabelModel distance="4.0"/></y:LabelModel><y:ModelParameter><y:SmartNodeLabelModelParameter labelRatioX="0.0" labelRatioY="0.0" nodeRatioX="0.0" nodeRatioY="0.0" offsetX="0.0" offsetY="0.0" upX="0.0" upY="-1.0"/></y:ModelParameter></y:NodeLabel>
              <y:UML clipContent="true" constraint="" hasDetailsColor="false" omitDetails="false" stereotype="" use3DEffect="true">
                <y:AttributeLabel xml:space="preserve"/>
                <y:MethodLabel xml:space="preserve"/>
              </y:UML>
            </y:UMLClassNode>
          </data>
        </node>
      </graph>
    </node>
    <edge id="n5::n0::e0" source="n5::n0::n1" target="n5::n0::n0">
      <data key="d8" xml:space="preserve"/>
      <data key="d10">
        <y:PolyLineEdge>
          <y:Path sx="0.0" sy="0.0" tx="0.0" ty="0.0"/>
          <y:LineStyle color="#000000" type="line" width="1.0"/>
          <y:Arrows source="none" target="white_delta"/>
          <y:BendStyle smoothed="false"/>
        </y:PolyLineEdge>
      </data>
    </edge>
    <edge id="n6::e0" source="n6::n2" target="n6::n1">
      <data key="d8" xml:space="preserve"/>
      <data key="d10">
        <y:PolyLineEdge>
          <y:Path sx="-39.53550222222225" sy="-3.4375015717521364" tx="0.0" ty="0.0"/>
          <y:LineStyle color="#000000" type="line" width="1.0"/>
          <y:Arrows source="none" target="white_delta"/>
          <y:BendStyle smoothed="false"/>
        </y:PolyLineEdge>
      </data>
    </edge>
    <edge id="n3::e0" source="n3::n0" target="n3::n1">
      <data key="d8" xml:space="preserve"/>
      <data key="d10">
        <y:PolyLineEdge>
          <y:Path sx="0.0" sy="0.0" tx="0.0" ty="0.0">
            <y:Point x="-2434.633729194137" y="306.6462637345584"/>
            <y:Point x="-2434.633729194137" y="276.8936820811356"/>
            <y:Point x="-2434.633729194137" y="169.79134034160384"/>
          </y:Path>
          <y:LineStyle color="#000000" type="line" width="1.0"/>
          <y:Arrows source="none" target="none"/>
          <y:BendStyle smoothed="false"/>
        </y:PolyLineEdge>
      </data>
    </edge>
    <edge id="n3::e1" source="n3::n2::n0" target="n3::n0">
      <data key="d8" xml:space="preserve"/>
      <data key="d10">
        <y:PolyLineEdge>
          <y:Path sx="0.0" sy="0.0" tx="0.0" ty="0.0">
            <y:Point x="-2434.633729194137" y="306.6462637345584"/>
          </y:Path>
          <y:LineStyle color="#000000" type="line" width="1.0"/>
          <y:Arrows source="none" target="none"/>
          <y:BendStyle smoothed="false"/>
        </y:PolyLineEdge>
      </data>
    </edge>
    <edge id="e0" source="n1" target="n3::n1">
      <data key="d8" xml:space="preserve"/>
      <data key="d10">
        <y:PolyLineEdge>
          <y:Path sx="0.0" sy="0.0" tx="-198.76308705952533" ty="112.8396028825054">
            <y:Point x="-1038.93322420809" y="-225.65818896825286"/>
            <y:Point x="-1444.2045918690476" y="-225.65818896825286"/>
            <y:Point x="-1452.7808381428563" y="-225.65818896825286"/>
            <y:Point x="-2085.518877583334" y="-225.65818896825286"/>
            <y:Point x="-2582.847639488097" y="-225.65818896825283"/>
            <y:Point x="-2582.847639488097" y="282.6309432241093"/>
          </y:Path>
          <y:LineStyle color="#000000" type="line" width="1.0"/>
          <y:Arrows source="diamond" target="none"/>
          <y:BendStyle smoothed="false"/>
        </y:PolyLineEdge>
      </data>
    </edge>
    <edge id="n4::e0" source="n4::n1::n0" target="n4::n0::n0">
      <data key="d8" xml:space="preserve"/>
      <data key="d10">
        <y:PolyLineEdge>
          <y:Path sx="0.0" sy="0.0" tx="0.0" ty="0.0">
            <y:Point x="-444.3697540963494" y="528.2736072814081"/>
            <y:Point x="-444.3697540963494" y="341.11451134245016"/>
            <y:Point x="-444.3697540963494" y="207.7867157705004"/>
          </y:Path>
          <y:LineStyle color="#000000" type="line" width="1.0"/>
          <y:Arrows source="none" target="none"/>
          <y:BendStyle smoothed="false"/>
        </y:PolyLineEdge>
      </data>
    </edge>
    <edge id="e1" source="n1" target="n4::n0">
      <data key="d8" xml:space="preserve"/>
      <data key="d10">
        <y:PolyLineEdge>
          <y:Path sx="0.0" sy="0.0" tx="-415.74526782866917" ty="208.2620231312457">
            <y:Point x="-516.2804611724939" y="405.3182701517461"/>
          </y:Path>
          <y:LineStyle color="#000000" type="line" width="1.0"/>
          <y:Arrows source="diamond" target="none"/>
          <y:BendStyle smoothed="false"/>
        </y:PolyLineEdge>
      </data>
    </edge>
    <edge id="n5::e0" source="n5::n2::n0" target="n5::n1::n0">
      <data key="d8" xml:space="preserve"/>
      <data key="d10">
        <y:PolyLineEdge>
          <y:Path sx="0.0" sy="0.0" tx="0.0" ty="0.0">
            <y:Point x="243.40401208091447" y="1067.6908728707213"/>
            <y:Point x="-201.99320747464122" y="1067.6908728707213"/>
            <y:Point x="-729.5263883592971" y="1067.6908728707213"/>
          </y:Path>
          <y:LineStyle color="#000000" type="line" width="1.0"/>
          <y:Arrows source="none" target="none"/>
          <y:BendStyle smoothed="false"/>
        </y:PolyLineEdge>
      </data>
    </edge>
    <edge id="e2" source="n1" target="n5">
      <data key="d8" xml:space="preserve"/>
      <data key="d10">
        <y:PolyLineEdge>
          <y:Path sx="0.0" sy="0.0" tx="-119.09413638350964" ty="-523.3783563147754">
            <y:Point x="-571.2064192355907" y="-64.3286887839604"/>
            <y:Point x="-571.2064192355907" y="1067.3242674277653"/>
          </y:Path>
          <y:LineStyle color="#000000" type="line" width="1.0"/>
          <y:Arrows source="diamond" target="none"/>
          <y:BendStyle smoothed="false"/>
        </y:PolyLineEdge>
      </data>
    </edge>
    <edge id="n6::e1" source="n6::n0" target="n6::n2">
      <data key="d8" xml:space="preserve"/>
      <data key="d10">
        <y:PolyLineEdge>
          <y:Path sx="0.0" sy="0.0" tx="189.48288268559202" ty="-48.96795934953025">
            <y:Point x="907.3213363484075" y="266.9502920990718"/>
            <y:Point x="880.5718773268652" y="266.9502920990718"/>
            <y:Point x="855.6590951046429" y="266.9502920990718"/>
          </y:Path>
          <y:LineStyle color="#000000" type="line" width="1.0"/>
          <y:Arrows source="white_diamond" target="none"/>
          <y:BendStyle smoothed="false"/>
        </y:PolyLineEdge>
      </data>
    </edge>
    <edge id="n6::e2" source="n6::n0" target="n6::n3">
      <data key="d8" xml:space="preserve"/>
      <data key="d10">
        <y:PolyLineEdge>
          <y:Path sx="35.70530105051421" sy="-2.350997487828863" tx="0.0" ty="0.0"/>
          <y:LineStyle color="#000000" type="line" width="1.0"/>
          <y:Arrows source="none" target="white_delta"/>
          <y:BendStyle smoothed="false"/>
        </y:PolyLineEdge>
      </data>
    </edge>
    <edge id="e3" source="n1" target="n6::n0">
      <data key="d8" xml:space="preserve"/>
      <data key="d10">
        <y:PolyLineEdge>
          <y:Path sx="0.0" sy="0.0" tx="-215.2816438371176" ty="-44.20506188234833">
            <y:Point x="857.7162303510748" y="-225.65818896825283"/>
            <y:Point x="857.7162303510748" y="222.74523021672348"/>
          </y:Path>
          <y:LineStyle color="#000000" type="line" width="1.0"/>
          <y:Arrows source="diamond" target="none"/>
          <y:BendStyle smoothed="false"/>
        </y:PolyLineEdge>
      </data>
    </edge>
    <edge id="e4" source="n7::n1" target="n7">
      <data key="d10">
        <y:PolyLineEdge>
          <y:Path sx="0.0" sy="-53.33561479754219" tx="160.5241441664441" ty="206.88098971896534"/>
          <y:LineStyle color="#000000" type="line" width="1.0"/>
          <y:Arrows source="none" target="white_delta"/>
          <y:BendStyle smoothed="false"/>
        </y:PolyLineEdge>
      </data>
    </edge>
    <edge id="n7::e0" source="n7::n2" target="n7::n0">
      <data key="d10">
        <y:PolyLineEdge>
          <y:Path sx="0.0" sy="-56.10624209836055" tx="-32.22938991676142" ty="63.492052312537226">
            <y:Point x="-1946.5742480592023" y="1484.0385575305797"/>
            <y:Point x="-1940.5889766748426" y="1484.0385575305797"/>
          </y:Path>
          <y:LineStyle color="#000000" type="line" width="1.0"/>
          <y:Arrows source="none" target="white_delta"/>
          <y:BendStyle smoothed="false"/>
        </y:PolyLineEdge>
      </data>
    </edge>
    <edge id="n7::e1" source="n7::n3" target="n7::n0">
      <data key="d10">
        <y:PolyLineEdge>
          <y:Path sx="0.0" sy="-43.17245901639342" tx="-88.94631075037842" ty="63.44542920525919">
            <y:Point x="-2139.448454408409" y="1516.6483184347094"/>
            <y:Point x="-1997.3058975084596" y="1516.6483184347094"/>
          </y:Path>
          <y:LineStyle color="#000000" type="line" width="1.0"/>
          <y:Arrows source="none" target="white_delta"/>
          <y:BendStyle smoothed="false"/>
        </y:PolyLineEdge>
      </data>
    </edge>
    <edge id="n7::e2" source="n7::n0" target="n7::n5">
      <data key="d10">
        <y:PolyLineEdge>
          <y:Path sx="-95.30396825396815" sy="0.0" tx="0.0" ty="0.0">
            <y:Point x="-2003.6635550120493" y="1308.0589469650386"/>
            <y:Point x="-2015.2198931300711" y="1308.0589469650386"/>
          </y:Path>
          <y:LineStyle color="#000000" type="line" width="1.0"/>
          <y:Arrows source="diamond" target="none"/>
          <y:BendStyle smoothed="false"/>
        </y:PolyLineEdge>
      </data>
    </edge>
    <edge id="n7::e3" source="n7::n0" target="n7::n6">
      <data key="d8" xml:space="preserve"/>
      <data key="d10">
        <y:PolyLineEdge>
          <y:Path sx="0.0" sy="0.0" tx="-6.917553407008199" ty="36.42936758857195"/>
          <y:LineStyle color="#000000" type="line" width="1.0"/>
          <y:Arrows source="none" target="white_delta"/>
          <y:BendStyle smoothed="false"/>
        </y:PolyLineEdge>
      </data>
    </edge>
    <edge id="n7::e4" source="n7::n6" target="n7::n4">
      <data key="d8" xml:space="preserve"/>
      <data key="d10">
        <y:PolyLineEdge>
          <y:Path sx="0.0" sy="0.0" tx="0.0" ty="0.0">
            <y:Point x="-1901.4420333510727" y="1043.9842177559758"/>
          </y:Path>
          <y:LineStyle color="#000000" type="line" width="1.0"/>
          <y:Arrows source="diamond" target="none"/>
          <y:BendStyle smoothed="false"/>
        </y:PolyLineEdge>
      </data>
    </edge>
    <edge id="n7::e5" source="n7::n7" target="n7::n6">
      <data key="d8" xml:space="preserve"/>
      <data key="d10">
        <y:PolyLineEdge>
          <y:Path sx="0.0" sy="0.0" tx="0.0" ty="0.0">
            <y:Point x="-1595.8130656978196" y="1164.8887754702612"/>
          </y:Path>
          <y:LineStyle color="#000000" type="line" width="1.0"/>
          <y:Arrows source="none" target="white_delta"/>
          <y:BendStyle smoothed="false"/>
        </y:PolyLineEdge>
      </data>
    </edge>
    <edge id="n7::e6" source="n7::n3" target="n7::n2">
      <data key="d8" xml:space="preserve"/>
      <data key="d10">
        <y:PolyLineEdge>
          <y:Path sx="0.0" sy="0.0" tx="0.0" ty="0.0">
            <y:Point x="-2139.448454408409" y="1848.4066934917857"/>
            <y:Point x="-1991.2341813092469" y="1848.4066934917857"/>
            <y:Point x="-1946.5742480592023" y="1848.4066934917857"/>
          </y:Path>
          <y:LineStyle color="#000000" type="line" width="1.0"/>
          <y:Arrows source="none" target="none"/>
          <y:BendStyle smoothed="false"/>
        </y:PolyLineEdge>
      </data>
    </edge>
    <edge id="e5" source="n7::n1" target="n7">
      <data key="d8" xml:space="preserve"/>
      <data key="d10">
        <y:PolyLineEdge>
          <y:Path sx="0.0" sy="0.0" tx="-61.55693859911321" ty="538.4287534330329">
            <y:Point x="-1735.1694861544408" y="1848.196082148777"/>
          </y:Path>
          <y:LineStyle color="#000000" type="line" width="1.0"/>
          <y:Arrows source="none" target="none"/>
          <y:BendStyle smoothed="false"/>
        </y:PolyLineEdge>
      </data>
    </edge>
    <edge id="n0::e0" source="n0::n0" target="n0::n1">
      <data key="d8" xml:space="preserve"/>
      <data key="d10">
        <y:PolyLineEdge>
          <y:Path sx="0.0" sy="0.0" tx="0.0" ty="0.0"/>
          <y:LineStyle color="#000000" type="dashed" width="1.0"/>
          <y:Arrows source="none" target="white_delta"/>
          <y:BendStyle smoothed="false"/>
        </y:PolyLineEdge>
      </data>
    </edge>
    <edge id="n0::e1" source="n0::n0" target="n0::n2">
      <data key="d8" xml:space="preserve"/>
      <data key="d10">
        <y:PolyLineEdge>
          <y:Path sx="-68.97591182222232" sy="4.0876836765059466" tx="-50.475911822222315" ty="-3.572774609208352">
            <y:Point x="-1495.5175690095139" y="591.8627671253363"/>
            <y:Point x="-1288.925392579621" y="591.8627671253363"/>
            <y:Point x="-1080.4138128190375" y="591.8627671253363"/>
          </y:Path>
          <y:LineStyle color="#000000" type="line" width="1.0"/>
          <y:Arrows source="none" target="none"/>
          <y:BendStyle smoothed="false"/>
        </y:PolyLineEdge>
      </data>
    </edge>
    <edge id="n0::e2" source="n0::n2" target="n0::n1">
      <data key="d8" xml:space="preserve"/>
      <data key="d10">
        <y:PolyLineEdge>
          <y:Path sx="0.0" sy="0.0" tx="0.0" ty="0.0"/>
          <y:LineStyle color="#000000" type="dashed" width="1.0"/>
          <y:Arrows source="none" target="white_delta"/>
          <y:BendStyle smoothed="false"/>
        </y:PolyLineEdge>
      </data>
    </edge>
    <edge id="e6" source="n0::n0" target="n7">
      <data key="d8" xml:space="preserve"/>
      <data key="d10">
        <y:PolyLineEdge>
          <y:Path sx="-94.91822070442026" sy="54.69312652095044" tx="-49.25314467911426" ty="537.8622412842549">
            <y:Point x="-1521.4598778917118" y="1005.2112644374273"/>
            <y:Point x="-1427.0079383361563" y="1005.2112644374273"/>
            <y:Point x="-1427.0079383361563" y="1917.8683211263024"/>
            <y:Point x="-1514.991074494717" y="1917.8683211263024"/>
            <y:Point x="-1944.9467749999994" y="1917.8683211263024"/>
          </y:Path>
          <y:LineStyle color="#000000" type="line" width="1.0"/>
          <y:Arrows source="diamond" target="none"/>
          <y:BendStyle smoothed="false"/>
        </y:PolyLineEdge>
      </data>
    </edge>
    <edge id="e7" source="n1" target="n0">
      <data key="d8" xml:space="preserve"/>
      <data key="d10">
        <y:PolyLineEdge>
          <y:Path sx="0.0" sy="0.0" tx="-72.20711170742538" ty="298.7559777489359">
            <y:Point x="-772.2115041822178" y="-225.65818896825286"/>
            <y:Point x="-772.2115041822178" y="714.8578002929688"/>
            <y:Point x="-1253.0360744947168" y="714.8578002929688"/>
            <y:Point x="-1300.4468907994788" y="714.8578002929688"/>
          </y:Path>
          <y:LineStyle color="#000000" type="line" width="1.0"/>
          <y:Arrows source="diamond" target="none"/>
          <y:BendStyle smoothed="false"/>
        </y:PolyLineEdge>
      </data>
    </edge>
    <edge id="e8" source="n7::n7" target="n7">
      <data key="d8" xml:space="preserve"/>
      <data key="d10">
        <y:PolyLineEdge>
          <y:Path sx="0.0" sy="0.0" tx="253.13586097172902" ty="105.68182128425497"/>
          <y:LineStyle color="#000000" type="line" width="1.0"/>
          <y:Arrows source="none" target="none"/>
          <y:BendStyle smoothed="false"/>
        </y:PolyLineEdge>
      </data>
    </edge>
    <edge id="e9" source="n7::n7" target="n7">
      <data key="d8" xml:space="preserve"/>
      <data key="d10">
        <y:PolyLineEdge>
          <y:Path sx="0.0" sy="0.0" tx="253.13586097172902" ty="137.68182128425497"/>
          <y:LineStyle color="#000000" type="line" width="1.0"/>
          <y:Arrows source="none" target="none"/>
          <y:BendStyle smoothed="false"/>
        </y:PolyLineEdge>
      </data>
    </edge>
    <edge id="e10" source="n7::n7" target="n7">
      <data key="d8" xml:space="preserve"/>
      <data key="d10">
        <y:PolyLineEdge>
          <y:Path sx="0.0" sy="0.0" tx="160.67885532088735" ty="538.7547212842549">
            <y:Point x="-1595.8130656978196" y="1848.522049999999"/>
            <y:Point x="-1735.1694861544408" y="1848.196082148777"/>
          </y:Path>
          <y:LineStyle color="#000000" type="line" width="1.0"/>
          <y:Arrows source="none" target="none"/>
          <y:BendStyle smoothed="false"/>
        </y:PolyLineEdge>
      </data>
    </edge>
    <edge id="n7::e7" source="n7::n1" target="n7::n0">
      <data key="d8" xml:space="preserve"/>
      <data key="d10">
        <y:PolyLineEdge>
          <y:Path sx="0.0" sy="0.0" tx="55.35217984808196" ty="63.44542920525919">
            <y:Point x="-1735.169486154441" y="1505.162623625"/>
            <y:Point x="-1853.0074069099992" y="1505.162623625"/>
          </y:Path>
          <y:LineStyle color="#000000" type="line" width="1.0"/>
          <y:Arrows source="none" target="white_delta"/>
          <y:BendStyle smoothed="false"/>
        </y:PolyLineEdge>
      </data>
    </edge>
    <edge id="e11" source="n6::n4" target="n6">
      <data key="d8" xml:space="preserve"/>
      <data key="d10">
        <y:PolyLineEdge>
          <y:Path sx="0.0" sy="0.0" tx="-80.95589414095537" ty="-206.9283219396512"/>
          <y:LineStyle color="#000000" type="line" width="1.0"/>
          <y:Arrows source="none" target="none"/>
          <y:BendStyle smoothed="false"/>
        </y:PolyLineEdge>
      </data>
    </edge>
    <edge id="e12" source="n1" target="n6::n4">
      <data key="d8" xml:space="preserve"/>
      <data key="d10">
        <y:PolyLineEdge>
          <y:Path sx="0.0" sy="0.0" tx="-15.70588444444445" ty="0.1853822185203171">
            <y:Point x="483.25341433837366" y="-225.65818896825283"/>
          </y:Path>
          <y:LineStyle color="#000000" type="line" width="1.0"/>
          <y:Arrows source="diamond" target="none"/>
          <y:BendStyle smoothed="false"/>
        </y:PolyLineEdge>
      </data>
    </edge>
  </graph>
  <data key="d7">
    <y:Resources/>
  </data>
</graphml>
